T-S J1.4 	185
T-S K5.76	193
T-S K6.177	182
T-S K15.2 	194
T-S K15.5 	194
T-S K15.6	185
T-S K15.9	187
T-S K15.10	186
T-S K15.13	196
T-S K15.14 	169, 190, 195
T-S K15.15	194
T-S K15.18 	189, 194
T-S K15.29	184
T-S K15.36 	196
T-S K15.39 	194
T-S K15.43 	169, 194
T-S K15.45	192, 193
T-S K15.47	197
T-S K15.48 	169, 184, 186
T-S K15.50 	185, 194, 195
T-S K15.58	193
T-S K15.66 	169, 170, 182, 189, 197
T-S K15.70 	172, 196
T-S K15.71	179
T-S K15.93 	169
T-S K15.96 	185, 189, 194, 196
T-S K15.99	175
T-S K15.100	188, 193
T-S K15.102 	185, 191
T-S K25.153	182
T-S K25.169	169, 180
T-S K25.244	188
T-S 8J4.15	175
T-S 8J4.18	194
T-S 8J5.12	192
T-S 8J5.18	173, 175
T-S 8J6.18	192
T-S 8J7.18	193
T-S 8J10.17	194
T-S 8J16.27 	186
T-S 8J19.24 	186
T-S 8J22.8	179, 191
T-S 8J22.10	186
T-S 8J25.6	169
T-S 8J25.19 	191
T-S 8J26.19 	185
T-S 8J32.3	173
T-S 8K22.1	184
T-S 10J9.9	169
T-S 10J15.4	197
T-S 13J3.4	177
T-S 13J3.9	193
T-S 13J4.11	182
T-S 13J9.5	172, 193
T-S 13J14.2	188
T-S 13J14.17	179
T-S 13J15.15 	179
T-S 13J15.19	179
T-S 13J16.5	180
T-S 13J16.19	179
T-S 13J17.3	188
T-S 13J18.29	196
T-S 13J19.27	175, 179
T-S 13J19.30	196
T-S 13J21.17	196
T-S 13J22.2	196
T-S 13J22.10	181, 188
T-S 13J22.30	173, 177
T-S 13J23.16	178
T-S 13J24.14 	182, 194
T-S 13J25.2	189, 194
T-S 13J25.9	169
T-S 13J25.15	179
T-S 13J25.19	195
T-S 13J26.18	188
T-S 13J27.4	182
T-S 13J27.17	189
T-S 13J27.18	178
T-S 13J28.9	171
T-S 13J28.24	192
T-S 13J29.2	172
T-S 13J33.5 	187
T-S 13J35.7	189
T-S 13J35.10	179
T-S 13J36.11	188
T-S 13Ja1.2	177
T-S 18J1.6 	195
T-S 18J2.8	192
T-S 18J4.12	192
T-S Ar.18(2).4	192
T-S Ar.51.107	194
T-S Misc.8.3	192
T-S Misc.25.103	184
T-S 12.12 	182
T-S 12.133	180-1
T-S 12.264 	189
T-S 12.291	185
T-S 12.362	186
T-S 12.367	174
T-S 12.372	180
T-S 12.462	186
T-S 12.525	187, 193
T-S 12.545	189
T-S 12.684	186
T-S 12.793	194
T-S 16.19	191
T-S 16.49	186
T-S 16.72	193
T-S 16.79	197
T-S 16.116	184, 187
T-S 16.138	184
T-S 16.142	192
T-S 16.272	182, 197
T-S 20.4	170
T-S 20.6 	186
T-S 20.69	174, 177, 180
T-S 20.76	179, 195
T-S 20.80	173
T-S 20.92	182
T-S 20.112 	191
T-S 20.122	174
T-S 20.128	184, 189
T-S 20.163	186
T-S 20.175 	169, 196
T-S 20.187	189
T-S 24.14	196
T-S 24.40	192
T-S 24.76 	189, 194
T-S NS J27	169
T-S NS J51	192
T-S NS J58	175
T-S NS J150	182
T-S NS J151	186
T-S NS J173	196
Or.1080 J17	179
Or.1080 J22	174
Or.1080 J29 	188
Or.1080 J39	180
Or.1080 J46 	169
Or.1080 J77	180-1, 190
Or.1080 J101	193
Or.1080 J113	185, 192
Or.1080 J152	186
Or.1080 J284 	176
Add.3340	188
T-S 13J25.19	194
West. Coll. Ar.II.79	192
West. Coll. Misc.9	187
