T-S J1.1	407, 422
T-S J1.15	386
T-S J1.26	408, 434, 233
T-S J1.29	298-305, 380-81, 387-94, 430, 322-25
T-S J1.31	398
T-S J1.42	394
T-S J1.47	363
T-S J1.48	303, 377-79, 385, 308
T-S J1.50	389
T-S J1.53	404
T-S J2.63	293-94
T-S J3.47	413
T-S K3.11	354, 436
T-S K3.21	374
T-S K3.26	395
T-S K3.28	392-93
T-S K6.44	296
T-S K6.44	358
T-S K6.106	353
T-S K15.3	369
T-S K15.13	354
T-S K15.45	292-93
T-S K15.45	368-70
T-S K15.47	359
T-S K15.48	396
T-S K15.50	447
T-S K15.54	294-95
T-S K15.54	367
T-S K15.58	359
T-S K15.65	298, 304, 378, 385-91, 399, 420, 423-25, 428-29
T-S K15.77	421
T-S K15.79	377-78, 380, 422, 424-25
T-S K15.91	375, 388, 394, 424
T-S K15.95	408
T-S K15.98	403
T-S K15.99	379-81, 390-93, 396, 413, 425, 430, 454, 459
T-S K15.100	301
T-S K15.106	405
T-S K15.111	302, 391, 423, 429, 465
T-S K15.113	371
T-S K15.114	403-5
T-S K21.98	352, 361
T-S K25.42	378-79, 387-92, 431, 450, 454, 463
T-S K25.153	432
T-S K25.166	302
T-S K25.169	293
T-S K25.171	427-28
T-S K25.190	370
T-S K25.240	358
T-S K25.244	359
T-S K25.251	350, 353-54, 358, 364-71
T-S K25.269	297, 378-79, 388-90, 393, 422-24, 427-30, 459, 463
T-S K25.284	288, 352, 364-66, 369-70
T-S K27.45	353
T-S 6J1.1	368
T-S 6J2.5	457
T-S 6J2.22	374
T-S 6J3.18	438
T-S 6J5.10	382
T-S 6J6.21	367
T-S 6J8.4	443
T-S 8J4.3	379, 388, 392-93
T-S 8J4.13	353, 363-65
T-S 8J4.14	369
T-S 8J4.16	380, 427
T-S 8J4.18	434-36
T-S 8J4.22	464
T-S 8J5.1	388-90, 393-94, 460-61
T-S 8J5.2	349
T-S 8J5.9	358, 363
T-S 8J5.10	368, 372
T-S 8J5.12	358, 364
T-S 8J5.18	421-27
T-S 8J5.22	372
T-S 8J6.12	350
T-S 8J6.14	282, 350, 373
T-S 8J6.15	279
T-S 8J7.7	275
T-S 8J7.23	388-89, 393
T-S 8J8.12	388
T-S 8J9.2	287, 365, 371, 374, 449
T-S 8J9.3	287, 365, 371-75, 449
T-S 8J9.6	359
T-S 8J9.11	373
T-S 8J9.17	278, 300, 367, 424
T-S 8J9.19	392
T-S 8J10.17	436
T-S 8J11.4	354
T-S 8J11.7	293-94
T-S 8J11.9	376
T-S 8J11.15	275
T-S 8J11.18	353, 373
T-S 8J13.3	413
T-S 8J13.18	358
T-S 8J14.3	276, 394
T-S 8J14.18	366, 381, 454
T-S 8J15.14	397, 444
T-S 8J15.17	358
T-S 8J15.25	405, 448
T-S 8J16.6	357
T-S 8J16.19	439
T-S 8J16.25	412
T-S 8J16.31	355
T-S 8J17.19	445
T-S 8J17.20	429
T-S 8J17.22	438
T-S 8J18.2	415, 419
T-S 8J18.14	397
T-S 8J18.33	406
T-S 8J19.19	382
T-S 8J19.21	373, 393
T-S 8J19.24	355
T-S 8J19.26	406
T-S 8J20.2	437
T-S 8J20.5	396
T-S 8J20.8	384
T-S 8J20.16	369
T-S 8J20.18	363, 373
T-S 8J21.4	452
T-S 8J21.14	388
T-S 8J21.17	278
T-S 8J21.23	423
T-S 8J21.28	421, 207
T-S 8J21.29	355
T-S 8J22.6 	404
T-S 8J22.8	399
T-S 8J22.11	255, 445
T-S 8J22.24	369
T-S 8J23.10	374
T-S 8J23.17	351
T-S 8J23.20	417
T-S 8J24.17	429
T-S 8J24.21	462
T-S 8J25.2	407
T-S 8J25.4	384
T-S 8J25.13	408
T-S 8J25.20	392
T-S 8J25.21	442
T-S 8J26.5 	385
T-S G1.1	397, 437
T-S 8J26.18	438
T-S 8J27.15	351
T-S 8J29.7	301, 378, 428-30, 465
T-S 8J29.9	367-69
T-S 8J29.15	428
T-S 8J31.4	384
T-S 8J31.6	448
T-S 8J32.4	278, 372
T-S 8J33.8	355
T-S 8J34.4	353
T-S 8J35.5	276
T-S 8J37.1	393
T-S 8J37.5	370
T-S 8J41.11	384
T-S 8J41.12	393
T-S 8J41.13	354, 374
T-S 8K22.12	360
T-S 10J5.4	404
T-S 10J5.9	398
T-S 10J5.15	463
T-S 10J5.16	367
T-S 10J5.24	381
T-S 10J6.4	435
T-S 10J6.4	435, 444
T-S 10J7.4	356
T-S 10J7.6	355
T-S 10J7.13	367-68
T-S 10J7.18	445
T-S 10J7.27	443
T-S 10J8.2	349
T-S 10J8.7	440
T-S 10J9.24	423, 427
T-S 10J10.5	380, 397
T-S 10J10.24	421
T-S 10J10.29	387, 441
T-S 10J11.2	463
T-S 10J11.3	391
T-S 10J11.15	392
T-S 10J11.26	358
T-S 10J12.1	350
T-S 10J12.3	435
T-S 10J12.5	442
T-S 10J12.10	298, 306, 379, 384, 390, 394
T-S 10J12.16	351, 430, 446
T-S 10J12.26	410
T-S 10J13.5	409
T-S 10J13.10	438
T-S 10J13.16	433
T-S 10J13.23	367
T-S 10J13.24	431
T-S 10J14.12	397, 438
T-S 10J14.13	408
T-S 10J14.20	440
T-S 10J14.27	362-63, 399
T-S 10J15.3 	415
T-S 10J15.14	405
T-S 10J15.19	403
T-S 10J15.26	283, 439
T-S 10J15.26	457
T-S 10J16.6	388
T-S 10J16.10	306
T-S 10J16.15	435-37
T-S 10J16.18	410
T-S 10J17.10	238
T-S 10J17.10	436
T-S 10J17.21	367, 373
T-S 10J18.3	351
T-S 10J18.16	447
T-S 10J19.8	405
T-S 10J19.10	438
T-S 10J20.5	357
T-S 10J21.4	302-4, 377-80, 386-89, 392, 422-25, 428
T-S 10J21.5	387, 422-24, 429
T-S 10J21.17	278, 372-73
T-S 10J24.4	413
T-S 10J28.9	430
T-S 10J28.13	367, 374
T-S 10J28.16	456
T-S 10J31.10	448
T-S 10J31.13	436
T-S 13J1.5	352, 374
T-S 13J1.8	438
T-S 13J1.12	466
T-S 13J1.21	369, 375, 457
T-S 13J2.3	358, 374
T-S 13J2.14	430
T-S 13J2.16	363, 392
T-S 13J2.18	424
T-S 13J2.25	280, 353
T-S 13J3.1	386, 394
T-S 13J3.2	412-14
T-S 13J3.3	357, 415, 436
T-S 13J3.6	287
T-S 13J3.10	343
T-S 13J3.10	377, 380, 386, 390-92, 395, 422-25, 429, 460
T-S 13J3.12 	374
T-S 13J4.4	361, 368, 373-74
T-S 13J4.14	364
T-S 13J5.3	445
T-S 13J6.9	388-90, 394, 415, 423-26, 430, 458
T-S 13J6.22	363, 368, 384, 402
T-S 13J7.2	383
T-S 13J7.8	379-81, 385, 467
T-S 13J7.22	366
T-S 13J8.11	364, 367
T-S 13J8.23	430
T-S 13J8.25	353
T-S 13J9.15	444
T-S 13J10.13	448
T-S 13J13.13	442
T-S 13J13.27	282
T-S 13J14.2	404, 410
T-S 13J14.20	376
T-S 13J14.23	448
T-S 13J15.5	430
T-S 13J15.9	438
T-S 13J15.18	398
T-S 13J15.19	398, 409
T-S 13J15.24	364
T-S 13J16.2 	383
T-S 13J16.6	349
T-S 13J16.19	437
T-S 13J17.1	394
T-S 13J17.8	344
T-S 13J17.14	379-92, 466
T-S 13J17.15	349
T-S 13J17.18	403
T-S 13J18.8	367, 373, 397, 410, 447
T-S 13J18.21	354
T-S 13J18.25	349
T-S 13J18.26	363
T-S 13J18.27	375, 438
T-S 13J18.29	351
T-S 13J19.3	363
T-S 13J19.9	398
T-S 13J19.17	373
T-S 13J19.27	402-4
T-S 13J20.5	351, 450
T-S 13J20.8	408
T-S 13J20.12	370
T-S 13J20.18	407-8
T-S 13J20.19	392
T-S 13J20.26	348-49
T-S 13J20.27	277, 363
T-S 13J21.12	363, 403
T-S 13J21.17	284, 446
T-S 13J21.18	349
T-S 13J21.29	359, 443
T-S 13J21.35	448
T-S 13J22.2	353, 358, 371-72, 396
T-S 13J22.12	425
T-S 13J22.14	443
T-S 13J22.16	359
T-S 13J22.22	446
T-S 13J22.24	349
T-S 13J23.14	435
T-S 13J23.21	409
T-S 13J24.8	367
T-S 13J25.2	439-40
T-S 13J25.6	413
T-S 13J25.8	384
T-S 13J25.9	298, 361, 413-15
T-S 13J25.13	404
T-S 13J25.19	281
T-S 13J26.6	385
T-S 13J26.8	385, 391, 422
T-S 13J26.10	440
T-S 13J27.6	442
T-S 13J28.2	392-94, 429
T-S 13J28.4	414
T-S 13J28.24	447
T-S 13J29.2	442
T-S 13J29.9	402
T-S 13J29.10	447
T-S 13J30.2	256
T-S 13J30.2	445
T-S 13J30.6	364
T-S 13J36.5	413
T-S 13J36.11	351
T-S 13J37.11	378, 395
T-S 18J1.9	435
T-S 18J1.10	391, 394, 403
T-S 18J1.26	419, 423, 427
T-S 18J1.27	359
T-S 18J2.1	370, 376
T-S 18J2.6	365, 373
T-S 18J2.8	369
T-S 18J2.10	432
T-S 18J2.12	347
T-S 18J2.13	366
T-S 18J3.5	447
T-S 18J4.1	448
T-S 18J4.12	366, 370
T-S 18J5.5	393
T-S Ar.4.4	386-87, 390-95, 423-24, 426-27, 431, 450
T-S Ar.4.5	415, 423, 426
T-S Ar.5.1	361, 365-68, 373
T-S Ar.5.2	393
T-S Ar.6.2	300-303, 377-78, 385, 389
T-S Ar.6.28	359
T-S Ar.7.3(1)	411
T-S Ar.7.3(2)	399
T-S Ar.7.5	374
T-S Ar.18(1).10	432
T-S Ar.18(1).35	368
T-S Ar.18(1).101	367
T-S Ar.18(1).127	369, 446
T-S Ar.18(1).130	357
T-S Ar.18(1).155	354, 363, 376, 449
T-S Ar.18(1).164	405, 441
T-S Ar.18(1).181	370
T-S Ar.25.53	392
T-S Ar.30.30	350, 365-67, 370-74
T-S Ar.30.53	365, 370
T-S Ar.30.84	446
T-S Ar.30.95	232
T-S Ar.30.95	434
T-S Ar.30.145	404
T-S Ar.30.177	446
T-S Ar.30.201	389-90, 394, 429-30
T-S Ar.30.215	373
T-S Ar.30.258	374
T-S Ar.30.263	350
T-S Ar.38.86	355, 363, 369
T-S Ar.38.102	366-70
T-S Ar.38.115	369
T-S Ar.38.116	354, 363-64, 370
T-S Ar.38.117	365-66, 369
T-S Ar.38.119	363, 366-67, 373-74
T-S Ar.39.17	373-74
T-S Ar.39.119	448
T-S Ar.40.53	357
T-S Ar.40.113	350
T-S Ar.42.130	356
T-S Ar.43.71	417, 447, 260
T-S Ar.48.270	350
T-S Ar.51.80	340
T-S Ar.51.107	360
T-S Ar.51.118	281, 370
T-S Ar.52.247	357
T-S Ar.53.19	354, 363-64, 367, 370
T-S Ar.53.32	416
T-S Ar.53.37	376
T-S Ar.53.51	412
T-S Ar.53.60	350, 354-56, 364
T-S Ar.53.61	286, 350, 361, 364
T-S Ar.53.66	350, 357, 371
T-S Ar.53.70	283, 354, 365, 369
T-S Ar.53.73	364-69, 373
T-S Ar.54.20	354, 374
T-S Ar.54.39	421
T-S Ar.54.56	433
T-S Ar.54.66	373
T-S Ar.54.88	410, 416
T-S Ar.54.92	278, 285, 363, 370, 373
T-S Ar.54.93	389, 438
T-S Misc.8.2	441
T-S Misc.8.22	353
T-S Misc.8.65	421
T-S Misc.8.66	444
T-S Misc.8.86	354
T-S Misc.8.97	301, 415
T-S Misc.8.99	395
T-S Misc.20.153	356
T-S Misc.24.5	365
T-S Misc.24.137.4a	386, 456
T-S Misc.25.14	382, 387
T-S Misc.25.20	448
T-S Misc.25.53	337-38, 394, 461-62
T-S Misc.28.29	405
T-S Misc.28.33	280
T-S Misc.28.51	383, 388, 422
T-S Misc.28.72	373, 436
T-S Misc.28.137	369
T-S Misc.28.155	435
T-S Misc.28.217	378, 393, 420
T-S Misc.28.225	404
T-S Misc.28.234	275
T-S Misc.29.23	284
T-S Misc.29.29	378, 428, 450
T-S 8.12	405
T-S 8.73	386
T-S 8.97	307, 379-82, 385-87
T-S 8.150	367, 371
T-S 8.162	362
T-S 8.166	419
T-S 8.224 	375
T-S 8.257	367
T-S 8.260	373
T-S 12.3	432
T-S 12.12	299, 304, 344, 377-82, 384-88, 392, 421, 426, 429, 456, 463, 308-9, 341
T-S 12.13	443
T-S 12.24	447
T-S 12.34	413, 417
T-S 12.50	370
T-S 12.80	444
T-S 12.92	410
T-S 12.98	391
T-S 12.115	372
T-S 12.118	394
T-S 12.119	426, 463
T-S 12.122	347
T-S 12.125	426-28
T-S 12.133	411
T-S 12.134	393
T-S 12.141	301
T-S 12.147	418
T-S 12.154	380
T-S 12.156	284, 307
T-S 12.160	385
T-S 12.163	418
T-S 12.166	281
T-S 12.167	300, 307, 380
T-S 12.172	363-64, 370
T-S 12.174	355
T-S 12.176	286, 371
T-S 12.177	372
T-S 12.180	381
T-S 12.215	432, 447
T-S 12.227	410
T-S 12.229	383, 410
T-S 12.231	278, 369
T-S 12.243	436
T-S 12.244	433
T-S 12.248	439
T-S 12.252	440
T-S 12.274	405
T-S 12.275	398
T-S 12.279	421
T-S 12.285	407
T-S 12.289	396
T-S 12.300	354
T-S 12.305	238, 437
T-S 12.307	422
T-S 12.312	397, 408
T-S 12.320	442
T-S 12.340	441
T-S 12.345	446
T-S 12.366	416
T-S 12.367	354
T-S 12.369	411
T-S 12.373	394, 420
T-S 12.383	349
T-S 12.389	410
T-S 12.404	384
T-S 12.415	438
T-S 12.417	375
T-S 12.434	391, 406
T-S 12.435	412
T-S 12.440	423, 429
T-S 12.452	391
T-S 12.459	382
T-S 12.465	382, 388
T-S 12.468	405
T-S 12.474	426
T-S 12.477	373
T-S 12.479	359
T-S 12.482	280, 372
T-S 12.485	372
T-S 12.487	373
T-S 12.488	302, 378
T-S 12.499	279, 352, 372
T-S 12.502	279
T-S 12.519	390-91, 394
T-S 12.520	463
T-S 12.526	300, 387, 399
T-S 12.530	379, 383, 388, 390-93, 421, 424-28, 431, 461
T-S 12.538	372
T-S 12.543	350
T-S 12.544	286, 372
T-S 12.552	385-87
T-S 12.577	277
T-S 12.581	369
T-S 12.586	350, 363, 385, 393
T-S 12.587	445
T-S 12.588	350
T-S 12.601	372
T-S 12.615	422
T-S 12.619	382, 387-88
T-S 12.621	386
T-S 12.624	374
T-S 12.628	356
T-S 12.633	461
T-S 12.635	382, 386
T-S 12.646	418-19
T-S 12.653	380
T-S 12.655	448
T-S 12.658	384, 455
T-S 12.660	364
T-S 12.668	371
T-S 12.690	307
T-S 12.694	280, 350-54, 361, 364
T-S 12.695	350
T-S 12.708	448
T-S 12.763	379, 427
T-S 12.771	375
T-S 12.773	361, 364-65, 369
T-S 12.777	373-74
T-S 12.781	382
T-S 12.792	363
T-S 16.5	373-74
T-S 16.30	385
T-S 16.32	380, 387, 398, 463
T-S 16.35	388
T-S 16.41	371
T-S 16.50	414
T-S 16.51	375
T-S 16.58	380
T-S 16.65	357
T-S 16.70	380, 388, 430-31
T-S 16.72	350, 353, 371, 373
T-S 16.73	422
T-S 16.79	371
T-S 16.80	193, 382-83, 389-94, 409, 451-53, 457
T-S 16.83	286, 353, 363
T-S 16.86	300, 302, 387, 398
T-S 16.87	405
T-S 16.102	360
T-S 16.107	427, 429
T-S 16.115	284, 358, 372, 375
T-S 16.116	352, 361-62, 365
T-S 16.117	281, 371
T-S 16.119	456
T-S 16.122	374
T-S 16.123	424
T-S 16.126	285
T-S 16.132	277, 361-62
T-S 16.137	369
T-S 16.140	364-72
T-S 16.142	419
T-S 16.146	286, 351, 371
T-S 16.155	283, 390-91
T-S 16.163	447
T-S 16.173	426
T-S 16.176	283, 372
T-S 16.178	386
T-S 16.181	282, 362-63, 369, 388, 394, 412, 429
T-S 16.184	380, 385-89
T-S 16.185	362, 364
T-S 16.188	350
T-S 16.198	387, 392, 419, 426
T-S 16.200	348, 441
T-S 16.206	428
T-S 16.207	375
T-S 16.215	394
T-S 16.232	440
T-S 16.239	430, 456
T-S 16.262	360
T-S 16.286	350
T-S 16.292	417
T-S 16.298	385
T-S 16.335	350
T-S 16.341	413
T-S 16.356	354, 361, 365-69, 373-74
T-S 16.377	437
T-S 20.1	363
T-S 20.3	358, 363, 369, 372
T-S 20.6	307, 363, 380-81, 428, 450
T-S 20.7	299, 377-82, 385-88, 390, 409, 465
T-S 20.8	300-303, 377-78, 385, 390-93, 426-29, 459
T-S 20.9	416
T-S 20.10	420
T-S 20.19	442
T-S 20.25	427, 429
T-S 20.33	393, 430
T-S 20.37	395
T-S 20.47	299, 304, 381, 417-18
T-S 20.48	387, 393-95, 398, 426, 430
T-S 20.69	383, 410, 448
T-S 20.76	386
T-S 20.77	399, 454
T-S 20.80	392, 409
T-S 20.83	441
T-S 20.85	352
T-S 20.92	353-54, 363, 369
T-S 20.96	352, 364, 376
T-S 20.99	397, 431
T-S 20.101	420
T-S 20.104	356
T-S 20.116	380, 383, 391-93
T-S 20.122	413
T-S 20.126	282, 352
T-S 20.128	366, 370
T-S 20.129	374
T-S 20.141	431
T-S 20.142	382
T-S 20.148	399
T-S 20.149	413
T-S 20.156	379-80
T-S 20.166	391
T-S 20.168	292-93
T-S 20.168	354, 368, 373
T-S 20.175	379
T-S 20.180	402, 422
T-S 20.187	384-86, 390-92, 430, 448
T-S 24.1	298, 419
T-S 24.2	379-82, 385, 388, 429
T-S 24.3	393
T-S 24.5	277, 302
T-S 24.8	393, 424, 428
T-S 24.9	390-92, 424-27, 430-31, 454, 458-59
T-S 24.12	380-82, 392, 417, 454
T-S 24.14	360
T-S 24.15	301, 377, 385-86, 426, 430
T-S 24.16	381, 390, 426, 454
T-S 24.17	429
T-S 24.27	397
T-S 24.30	305, 388
T-S 24.37	430
T-S 24.44	283, 364
T-S 24.64	388
T-S 24.66	383-85
T-S 24.72	388, 415
T-S 24.76	349, 359
T-S 24.78	349, 358, 439
T-S 24.80	307-8, 379, 385
T-S 24.81	372
T-S 28.3	284, 352, 361, 365, 374
T-S 28.6	298, 386, 421, 427
T-S 28.22	377, 385, 404
T-S 28.23	302, 428
T-S NS 31.7	367
T-S NS 31.8	397
T-S NS 184.49	430
T-S NS 184.58	449
T-S NS 184.62	449
T-S NS 184.70	449
T-S NS 184.71	449
T-S NS 184.72	449
T-S NS 184.74	449
T-S NS 184.78	449
T-S NS 184.98	449
T-S NS 225.25	369
T-S NS 228.6	403
T-S NS 246.22	289, 456
T-S NS 264.13	388
T-S NS 298.6	399
T-S NS 306.1	280, 355, 363
T-S NS 308.119	406
T-S NS 320.7	448
T-S NS 320.17	427
T-S NS 320.19	440
T-S NS 320.34	380, 385-88, 429
T-S NS 320.52	383
T-S NS 320.55	444
T-S NS 323.1	410
T-S NS 323.29	426
T-S NS 324.144	422, 427, 458
T-S NS 325.13	409, 465
T-S NS J3	30, 178, 356, 408
T-S NS J4	367
T-S NS J6	349
T-S NS J7	448
T-S NS J27	126, 140, 146, 284, 353, 361, 381-94, 448, 457
T-S NS J27	448
T-S NS J28	404
T-S NS J29	305
T-S NS J36	351
T-S NS J59	350
T-S NS J78	445-46
T-S NS J86	382, 386-88, 394, 430
T-S NS J127	410
T-S NS J128	126, 383, 416
T-S NS J150	404
T-S NS J163	392-95
T-S NS J179	441
T-S NS J183	446
T-S NS J184	386-88, 391-92, 396, 430, 458
T-S NS J185	363, 372
T-S NS J190	15, 287-88, 351
T-S NS J208	142, 147, 380, 386, 391-95, 426
T-S NS J215	37, 358
T-S NS J226	393
T-S NS J226	430
T-S NS J228	297, 382, 391
T-S NS J231	297, 387, 393, 422-23, 429
T-S NS J243	437
T-S NS J264	352
T-S NS J279	228, 431
T-S NS J284	160, 399
T-S NS J284	398
T-S NS J296	124, 383, 388, 422, 425
T-S NS J300	410
T-S NS J306	419, 429-30
T-S NS J317	231, 433
T-S NS J321	446
T-S NS J327	435, 438
T-S NS J338	367-69, 372
T-S NS J344	405
T-S NS J359	129, 385, 392-95, 412
T-S NS J375	436
T-S NS J378	374
T-S NS J382	363, 369, 372
T-S NS J390	302-4, 378, 382, 386-88, 422, 429, 463-67
T-S NS J390	344
T-S NS J392	378, 390-96, 412
T-S NS J409	386-89, 391-93
T-S NS J410	302, 388-89, 465
T-S NS J414	403, 423, 427-28
T-S NS J437	230-31, 433
T-S NS J438	432
T-S NS J443	413
T-S NS J446	442
T-S NS J458	249, 443
T-S NS J460	449
T-S NS J461	305
T-S AS 145.10	387-89
T-S AS 145.76	444
T-S AS 146.7	465
T-S AS 146.13	394, 429
T-S AS 147.4	439
T-S AS 147.20	385, 394
T-S AS 147.24	251, 443
T-S AS 147.38	373, 461
T-S AS 148.7	392
T-S AS 148.9	404
T-S AS 148.15	285, 395
T-S AS 149.3	386
T-S AS 149.10	441, 443
T-S AS 150.1	360
T-S AS 151.4	373, 384
T-S AS 152.360	436
T-S AS 155.207	445
Or.1080 5.15	300-302, 387
Or.1080 5.17	392
Or.1080 J7	287, 353
Or.1080 J23	351, 384
Or.1080 J25	369
Or.1080 J27	358
Or.1080 J29	448
Or.1080 J35	415
Or.1080 J36	354
Or.1080 J47	436
Or.1080 J48	332-33, 380, 383, 390
Or.1080 J49	326-28, 385-87, 422, 425, 456
Or.1080 J50	382
Or.1080 J55	390, 393-94, 428
Or.1080 J64	399
Or.1080 J66	357, 368
Or.1080 J71	369, 439
Or.1080 J77	382-83, 402, 406, 411
Or.1080 J80	363
Or.1080 J82	443
Or.1080 J89	448
Or.1080 J95	404
Or.1080 J100	380
Or.1080 J111	447
Or.1080 J117	279, 364-68, 370, 373
Or.1080 J126	378-80, 394, 427
Or.1080 J138	448
Or.1080 J140	307, 380, 385-87
Or.1080 J142	336-37, 382-83, 412, 462
Or.1080 J170	366
Or.1080 J178	405
Or.1080 J185	387
Or.1080 J239	352
Or.1080 J264	359, 413
Or.1080 J276	349
Or.1080 J283	287
Or.1080 J291	408-10
Or.1081 J3	393
Or.1081 J25	406
Or.1081 J31	283
Or.1081 J56	385-87
Add.2586	281
Add.3339	404
Add.3413	445
Add.3415	409
Add.3418	379, 386, 390, 394
Add.3420	392
Add.3423	461
Add.3430	305, 380, 389-90, 398, 442, 314-16
UNIDENTIFIED	413
T-S 10J21.16	278, 372-3
T-S 13J25.9	298, 413-15
T-S 13J25.19	361
Add.3339	171, 404
T-S NS 323.2	(II,63) *e Addendum BI
West. Coll. Misc.5	379
West. Coll. Misc.9	393-94, 403, 411
West. Coll. Misc.13	404
West. Coll. Misc.51	374
West. Coll. Misc.119	379
West. Coll. Misc.120	393, 427
Mosseri II.125.2	NULL
Mosseri II.158.3	NULL
Mosseri II.195, mistakenly referred as Mosseri L 197 	NULL
Mosseri II.195	NULL
Mosseri IV.7	NULL
Mosseri IV.46.2-4 (??)	NULL
Mosseri IV.69.1-2	NULL
Mosseri IV.88	NULL
Mosseri VII.6.2	NULL
Mosseri VII.17	NULL
Mosseri VII.52.1, mistakenly referred as A 52.1 (A 52, 2nd series) 	NULL
Mosseri VII.55	NULL
Mosseri VII.69.1	NULL
Mosseri VII.82.1	NULL
Mosseri VII.107	NULL
Mosseri VII.165	NULL
Mosseri IX.163	NULL
