T-S H11.78	447
T-S J1.29	125, 129, 137, 355, 387, 414, 453, 454, 456, 506
T-S J1.48	421
T-S J2.26	199, 468
T-S J3.25	449
T-S J3.27	147, 132-3
T-S J3.27	151, 455, 458, 459
T-S J3.46	471
T-S J3.47	136, 377, 456
T-S J3.47	406
T-S K3.32	284, 490
T-S K6.24	458
T-S K6.118	244, 281, 386, 479, 489
T-S K15.2	466
T-S K15.4	426
T-S K15.7	5, 426
T-S K15.25	466
T-S K15.28	425
T-S K15.36	429
T-S K15.48	64, 440
T-S K15.50	429, 470
T-S K15.65	127, 368, 399, 403, 454
T-S K15.68	425
T-S K15.69	456
T-S K15.70	429
T-S K15.79	400
T-S K15.91	428
T-S K15.92	478
T-S K15.93	311, 496
T-S K15.95	292, 492
T-S K15.97	303, 429, 494
T-S K15.100	403
T-S K15.102	303, 470, 494
T-S K15.111	421
T-S K15.114	441, 503
T-S K25.166	396
T-S K25.171	128, 454
T-S K25.183	414
T-S K25.191	272, 487
T-S K25.205	169-70, 463
T-S K25.244	464
T-S K25.251	37, 435
T-S K25.269	129, 454
T-S K25.284	435
T-S 6J2.1	471
T-S 6J2.2	152, 419, 466
T-S 6J2.26	490
T-S 6J3.16	178, 464
T-S 6J3.22	464
T-S 6J6.17	232, 475
T-S 6J6.21	303-4
T-S 6J6.21	494
T-S 6Ja2	374, 414
T-S 8J1.1	166, 462
T-S 8J4.2	93, 376, 407, 428, 445
T-S 8J4.3	268, 486
T-S 8J4.13	435, 39
T-S 8J4.15	214, 471
T-S 8J4.17	246-7, 481
T-S 8J4.18	191, 466-7
T-S 8J4.20	488
T-S 8J4.21	285, 490
T-S 8J4.22	90, 152, 379, 398, 445, 459
T-S 8J4.23	91, 328, 379, 398, 445, 500
T-S 8J4.25	469
T-S 8J5.1	412, 490
T-S 8J5.2	145
T-S 8J5.2	270, 337, 383, 397, 457, 460, 461, 466, 487, 502
T-S 8J5.2	120-21, 450, 451-2
T-S 8J5.2	120-21, 452
T-S 8J5.3	381, 382, 403, 470
T-S 8J5.4	156, 191, 437, 460, 467
T-S 8J5.4	497
T-S 8J5.5	347-8, 504-5
T-S 8J5.7	155, 460
T-S 8J5.8	196
T-S 8J5.8	468
T-S 8J5.13	429
T-S 8J5.16	177, 347, 407, 427, 464, 504
T-S 8J5.18	366, 403
T-S 8J5.21	152, 387, 404, 459
T-S 8J5.22	86, 150, 367, 401, 444, 450, 458-9
T-S 8J5.23	467
T-S 8J5.25	466, 491
T-S 8J6.2	327, 500
T-S 8J6.3	327, 500
T-S 8J6.4	287, 491
T-S 8J6.6	287, 491
T-S 8J6.7	429
T-S 8J6.12	279, 390, 489
T-S 8J6.14	251, 409, 481
T-S 8J6.16	188, 466
T-S 8J6.18	28, 375, 407, 433
T-S 8J6.18	287, 491
T-S 8J7.7	489
T-S 8J7.27	154, 459
T-S 8J8.12	256, 481, 483
T-S 8J9.9	91, 145, 405, 445
T-S 8J9.9	457
T-S 8J9.13	403, 415, 442
T-S 8J9.17	367, 399, 409
T-S 8J10.17	191-2
T-S 8J10.17	467
T-S 8J11.15 	114, 449
T-S 8J11.16	447
T-S 8J11.19	264, 485
T-S 8J14.2	204, 267, 469, 486
T-S 8J14.25	80
T-S 8J14.25	441, 442, 443
T-S 8J14.27	462
T-S 8J16.1	305, 494
T-S 8J17.6	152, 459, 494
T-S 8J17.9	145
T-S 8J17.9	152, 383, 403, 406, 445, 457, 459
T-S 8J17.9	121, 452
T-S 8J17.17	258, 484
T-S 8J18.14	432
T-S 8J19.25	432
T-S 8J19.29	306, 494
T-S 8J19.33	467
T-S 8J20.16	179, 464
T-S 8J21.4	256, 483
T-S 8J21.7	339, 503
T-S 8J21.14	254, 482
T-S 8J22.6	231, 475
T-S 8J22.10	428
T-S 8J22.22	269, 486
T-S 8J22.23	239, 478
T-S 8J22.27	186
T-S 8J22.27	466
T-S 8J24.4	172, 231, 463, 475, 488
T-S 8J25.13	467
T-S 8J26.5	467
T-S G1.61	430
T-S 8J26.17	467
T-S 8J27.2	432
T-S 8J27.5	235, 476
T-S 8J29.13	216-17
T-S 8J29.13	472
T-S 8J32.1	120-21, 148, 382, 406, 452, 458
T-S 8J34.1	190, 466
T-S 8J34.4	37, 435
T-S 8J34.10	168, 411, 463, 481
T-S 8J35.11	326, 500
T-S 8J41.8	213, 471
T-S 8J41.13	311, 496
T-S 8Ja1.3	10, 428
T-S 8Ja2.1	429, 12
T-S 8K20.1	268, 486
T-S 8K22.1	456
T-S 8K22.6	10, 428
T-S 10J2.4	319, 499
T-S 10J2.6	486
T-S 10J2.7	265, 485
T-S 10J2.8	269, 486
T-S 10J2.11	269, 486
T-S 10J2.15	265, 485
T-S 10J2.17	265, 485
T-S 10J2.35	269, 486
T-S 10J2.37	269, 486
T-S 10J2.38	269, 486
T-S 10J2.39	263, 485
T-S 10J4.3	301, 493
T-S 10J4.7	38, 435
T-S 10J4.9	432
T-S 10J4.10	482
T-S 10J4.11	169
T-S 10J4.11	463
T-S 10J5.2	253, 330, 482, 501
T-S 10J5.4	494
T-S 10J5.9	281, 489
T-S 10J5.10	484
T-S 10J5.11	428
T-S 10J5.15	428
T-S 10J5.16	504
T-S 10J5.19	331, 501
T-S 10J6.3	334, 501-2
T-S 10J6.5	232-3, 476
T-S 10J6.6	436, 470
T-S 10J6.16	486
T-S 10J7.3	240, 478
T-S 10J7.4	43, 432
T-S 10J7.5	115
T-S 10J7.5	236, 450, 477
T-S 10J7.6	42, 398, 436, 443
T-S 10J7.10	350-1
T-S 10J7.10	505
T-S 10J7.13	128, 403, 454
T-S 10J7.17	295, 492
T-S 10J8.9	436
T-S 10J9.1	22, 242, 431, 479
T-S 10J9.13	30, 434, 464
T-S 10J9.13	175-6
T-S 10J9.16	208, 470
T-S 10J9.27	430, 18
T-S 10J9.32	43, 183, 432, 465
T-S 10J10.13	213, 471
T-S 10J10.15	207, 470
T-S 10J10.18	467
T-S 10J10.23	494
T-S 10J10.30	193, 467
T-S 10J11.13	31, 234, 261, 301, 303, 327, 434, 476, 484, 493, 494, 500
T-S 10J11.22	241, 479
T-S 10J11.30	198, 468
T-S 10J12.1	183-4, 310, 359, 465, 496, 507
T-S 10J12.4	436
T-S 10J12.14	271-2, 487
T-S 10J12.18	177, 464
T-S 10J12.24	164, 462
T-S 10J12.28	164, 462
T-S 10J13.4	438
T-S 10J13.5	115
T-S 10J13.5	450
T-S 10J13.10	242, 379, 479
T-S 10J13.12	477
T-S 10J13.13	425
T-S 10J13.18	228, 474
T-S 10J13.24	242, 479
T-S 10J14.6	241, 479
T-S 10J14.9	438
T-S 10J14.20	21-2, 431
T-S 10J14.29	249, 481
T-S 10J15.8	431
T-S 10J15.9	261, 484
T-S 10J15.12	162, 462, 472
T-S 10J15.15	244, 479
T-S 10J15.23	128
T-S 10J15.23	474
T-S 10J15.26	30, 117-18, 434, 451
T-S 10J15.26	150, 458
T-S 10J15.27	305, 494
T-S 10J16.1	432
T-S 10J16.4	260, 484
T-S 10J16.6	469
T-S 10J16.7	439
T-S 10J16.14	168, 235, 463, 476
T-S 10J16.18	474
T-S 10J16.19	480
T-S 10J17.3	240, 478
T-S 10J17.8	240, 478
T-S 10J17.14	238, 477
T-S 10J17.16	443, 498
T-S 10J17.22	45, 432
T-S 10J17.25	284, 490
T-S 10J18.1	237, 426, 477
T-S 10J18.6	461
T-S 10J18.10	35
T-S 10J18.10	241, 434, 479
T-S 10J19.7	433
T-S 10J19.15	444
T-S 10J20.3	489
T-S 10J20.6	284, 490
T-S 10J20.18	115-16, 450
T-S 10J20.21	336, 502
T-S 10J21.4	404, 444
T-S 10J21.5	128, 399, 454
T-S 10J21.6	128, 454
T-S 10J21.7	147, 458
T-S 10J21.10	278, 488
T-S 10J21.13	124-5, 408, 453
T-S 10J21.14	488
T-S 10J21.16	483
T-S 10J24.1	471
T-S 10J25.3	428
T-S 10J25.8	432, 505
T-S 10J26.1	197-8, 468
T-S 10J26.2	9, 428
T-S 10J26.4	276, 483, 488
T-S 10J27.3	90, 150-1, 152, 267, 379, 403, 445, 459, 486
T-S 10J27.12	124, 286, 453, 486
T-S 10J28.1	407
T-S 10J28.11	498
T-S 10J29.1	61, 440, 491
T-S 10J29.5	284, 490
T-S 10J29.15	430
T-S 10J30.7	294, 492
T-S 10J30.11	59
T-S 10J30.11	439
T-S 10J31.14	179, 464
T-S 10J32.10	338, 503
T-S 10K7.1	261, 484
T-S 13J1.2	198-9, 314, 375, 409, 468, 497
T-S 13J1.5	335, 502
T-S 13J1.6	199, 468
T-S 13J1.7	443
T-S 13J1.12	183, 465
T-S 13J1.17	481
T-S 13J1.18	498
T-S 13J1.21	347, 499, 504
T-S 13J1.23	347, 504
T-S 13J2.1	309-310, 495
T-S 13J2.2	301, 495
T-S 13J2.3	121, 150, 403, 445, 452, 459
T-S 13J2.8	61, 289, 440, 445, 491
T-S 13J2.12	471
T-S 13J2.14	113, 449
T-S 13J2.16	259, 484
T-S 13J2.17	310, 334, 389, 495, 502
T-S 13J2.22	174, 195, 464, 466, 468
T-S 13J2.25	148, 458, 462, 469, 504
T-S 13J3.1	385, 469
T-S 13J3.2	385, 410
T-S 13J3.3	30, 150, 192, 434, 435, 443, 459, 467
T-S 13J3.4	491
T-S 13J3.7	352, 505
T-S 13J3.10	128, 296, 366, 398, 405, 411, 413, 450, 454, 482, 492
T-S 13J3.11	483
T-S 13J3.12	427
T-S 13J3.13	181, 392, 465
T-S 13J3.14	369, 409, 486
T-S 13J3.17	251, 409, 429, 481
T-S 13J3.22	486
T-S 13J3.25	288, 491
T-S 13J3.26	82, 443
T-S 13J3.27	331, 501
T-S 13J4.1	453
T-S 13J4.7	218, 472
T-S 13J4.15	134, 309, 400, 455, 495
T-S 13J4.15	451
T-S 13J4.16	211, 471
T-S 13J5.1	268, 295, 486, 492
T-S 13J5.5	127, 389, 412, 454, 483
T-S 13J6.9	124, 422, 453
T-S 13J6.11	270, 487
T-S 13J6.14	150-51, 244, 377, 459, 479
T-S 13J6.21	502
T-S 13J6.22	431
T-S 13J6.26	124
T-S 13J6.26	453
T-S 13J6.27	305, 356, 494, 506
T-S 13J6.33	151
T-S 13J6.33	158, 459, 460
T-S 13J7.8	421
T-S 13J8.1	335, 502
T-S 13J8.2	203, 469
T-S 13J8.4	430
T-S 13J8.9	431
T-S 13J8.11	353, 506
T-S 13J8.13	474
T-S 13J8.19	197
T-S 13J8.19	468
T-S 13J8.20	42, 281, 436, 489
T-S 13J8.22	434
T-S 13J8.23	164, 166-7, 186, 263, 462, 463, 466, 485
T-S 13J8.24	124, 150, 152, 159, 405, 444, 450, 453, 457, 459, 461
T-S 13J8.24	143
T-S 13J8.27	430, 60, 439
T-S 13J8.31	78-9, 211-12, 443, 471
T-S 13J9.3	15, 430
T-S 13J9.4	60, 239, 430, 439, 478
T-S 13J9.4	241
T-S 13J9.8	303, 494
T-S 13J13.1	331, 501
T-S 13J13.10	430
T-S 13J13.12	430
T-S 13J13.13	475, 479
T-S 13J13.21	136-7, 456
T-S 13J14.3	73, 442
T-S 13J14.4	46, 238, 436, 477
T-S 13J14.12	47, 436
T-S 13J14.25	432
T-S 13J15.7	468
T-S 13J15.23	197-8, 468
T-S 13J16.3	247, 481
T-S 13J16.4	464
T-S 13J16.5	72-3, 442
T-S 13J16.7	177, 200, 425, 464, 469
T-S 13J16.11	260, 484
T-S 13J16.24	262, 485
T-S 13J17.9	239, 477
T-S 13J17.14	125, 182, 377, 417, 454, 465
T-S 13J17.18	301, 493
T-S 13J17.23	193, 467, 474
T-S 13J18.5	461
T-S 13J18.6	311, 496
T-S 13J18.7	428
T-S 13J18.9	478
T-S 13J18.10	305, 494
T-S 13J18.12	467
T-S 13J18.13	225, 433, 473
T-S 13J18.15	172, 463
T-S 13J18.17	224, 473
T-S 13J18.18	472
T-S 13J18.20	475
T-S 13J18.22	50
T-S 13J18.22	440
T-S 13J18.26	240, 467, 478
T-S 13J18.27	34
T-S 13J18.27	42, 436, 434
T-S 13J18.29	246, 436, 480
T-S 13J19.2	28-9, 433
T-S 13J19.12	311, 496
T-S 13J19.13	430
T-S 13J19.14	225, 431, 473
T-S 13J20.2	428
T-S 13J20.3	234, 476
T-S 13J20.6	161, 430, 462, 480
T-S 13J20.9	220-1
T-S 13J20.9	472
T-S 13J20.17	203, 393, 469
T-S 13J20.18	503
T-S 13J20.20	55
T-S 13J20.20	438
T-S 13J20.22	20, 431
T-S 13J20.25	340, 503
T-S 13J20.27	275, 488
T-S 13J20.28	431, 437
T-S 13J21.2	197, 468
T-S 13J21.5	47, 262, 425, 437, 485
T-S 13J21.13	30, 434
T-S 13J21.18	22, 231, 425, 432, 475
T-S 13J21.23	161, 462
T-S 13J21.30	311, 496
T-S 13J21.32	474
T-S 13J21.35	239, 477
T-S 13J21.36	48-9, 164, 437, 462
T-S 13J22.2	273, 411, 435, 487, 499
T-S 13J22.7	303, 494
T-S 13J22.20	428, 482
T-S 13J22.21	181, 465, 484
T-S 13J22.22	245, 480
T-S 13J22.25	306, 495
T-S 13J22.26	462
T-S 13J22.28	482
T-S 13J22.29	18
T-S 13J22.29	430, 477
T-S 13J23.5	227, 474
T-S 13J23.7	153, 459
T-S 13J23.15	428
T-S 13J23.18	22
T-S 13J23.18	431
T-S 13J24.1	234
T-S 13J24.1	476
T-S 13J24.10	172
T-S 13J24.10	463
T-S 13J24.22	240, 478
T-S 13J25.3	118, 451
T-S 13J25.19	235, 327, 333, 476, 500, 501
T-S 13J26.6	430
T-S 13J26.8	428
T-S 13J26.18	16
T-S 13J26.18	137, 430, 456, 483
T-S 13J27.11	472
T-S 13J27.15	47, 437
T-S 13J27.21	338, 503
T-S 13J28.15 	16
T-S 13J28.15 	430
T-S 13J28.16	338, 468, 503
T-S 13J28.19	167-8, 177-9, 463, 464
T-S 13J29.2	451
T-S 13J29.7	202
T-S 13J29.7	469
T-S 13J30.2	427
T-S 13J30.4	500
T-S 13J33.1	440
T-S 13J33.10	480
T-S 13J34.4	155, 460
T-S 13J34.5	20, 431, 478
T-S 13J34.8	473
T-S 13J34.9	117
T-S 13J34.9	450
T-S 13J35.6	224, 473
T-S 13J35.14	59, 439
T-S 13J36.1	261, 430, 484
T-S 13J36.4	233, 475
T-S 13J37.2	467
T-S 13J37.10	44-5, 436
T-S 13J37.11	422
T-S 13Ja1.1	75, 442
T-S 18J1.1	257, 484
T-S 18J1.2	287, 491
T-S 18J1.3	89, 374, 406, 444
T-S 18J1.4	251, 276, 283, 411, 481, 488, 490
T-S 18J1.7	289, 428, 491
T-S 18J1.9	428
T-S 18J1.14	406
T-S 18J1.15	409
T-S 18J1.17	272, 487
T-S 18J1.18	483
T-S 18J1.20	256, 412, 483
T-S 18J1.22	290, 491
T-S 18J1.23	259, 273, 484, 487
T-S 18J1.25	348, 504
T-S 18J1.27	252, 482
T-S 18J1.28	307, 441, 450, 495
T-S 18J1.32	436
T-S 18J2.5	435, 437
T-S 18J2.12	489
T-S 18J2.13	265, 269, 484, 487
T-S 18J2.16	293, 428, 492
T-S 18J3.2	28, 180, 195, 433, 464, 468, 472
T-S 18J3.2	217-18
T-S 18J3.4	26, 30, 433, 434
T-S 18J3.5	238, 425, 477
T-S 18J3.12	269, 486
T-S 18J3.15	461, 473
T-S 18J3.19	225, 239, 473, 475, 478
T-S 18J4.2	255, 473, 483
T-S 18J4.4	249, 481
T-S 18J4.11	451
T-S 18J4.21	489
T-S 18J5.10	497
T-S Ar.4.5	350, 505
T-S Ar.6.2	403
T-S Ar.6.28	6, 30, 206-7, 426, 434, 470
T-S Ar.7.9	114
T-S Ar.7.9	449
T-S Ar.7.22	450
T-S Ar.7.29	270, 410, 487
T-S Ar.18(2).4	426-7
T-S Ar.30.8	406, 442, 451, 452, 495
T-S Ar.38.11	450
T-S Ar.38.14	194, 201, 468, 469
T-S Ar.38.102	38, 243, 435, 479
T-S Ar.38.116	327, 499, 500
T-S Ar.39.57	204, 469
T-S Ar.39.189	488
T-S Ar.39.338	463
T-S Ar.40.29	327, 500
T-S Ar.40.56	264, 485
T-S Ar.40.96	200, 264, 468, 485
T-S Ar.41.79	257, 484
T-S Ar.41.141	11, 428
T-S Ar.47.244	77, 442
T-S Ar.48.270	19, 431
T-S Ar.49.166	101, 292, 293, 447, 492
T-S Ar.50.181	416
T-S Ar.50.197	212, 441, 445, 471
T-S Ar.51.103	39, 125, 381, 435, 453
T-S Ar.52.248	481
T-S Ar.53.37	61, 440, 441
T-S Ar.53.53	285, 490
T-S Ar.53.60	435
T-S Ar.53.61	327, 500
T-S Ar.54.46	474
T-S Ar.54.49	286, 491
T-S Ar.54.52	494
T-S Ar.54.69	265, 485, 498
T-S Ar.54.74	233, 476
T-S Ar.54.78	85-6, 124, 444, 453
T-S Ar.54.91	162, 462
T-S Misc.8.9	470
T-S Misc.8.25	64, 440
T-S Misc.8.29	311, 496
T-S Misc.8.72	286, 491
T-S Misc.8.87	452
T-S Misc.8.97	150, 397, 459
T-S Misc.8.99	498
T-S Misc.8.100	466
T-S Misc.8.102	352, 505
T-S Misc.24.137.4	435, 443
T-S Misc.25.6	463
T-S Misc.25.14	414
T-S Misc.25.25	443
T-S Misc.25.53	490
T-S Misc.25.62	451
T-S Misc.25.129	498
T-S Misc.25.138	288, 491
T-S Misc.25.140	150, 383, 391, 458
T-S Misc.27.4.22	403
T-S Misc.27.4.26	403
T-S Misc.27.4.31	336, 502
T-S Misc.28.26	134, 159, 415, 452, 455, 461
T-S Misc.28.34	266, 485
T-S Misc.28.44	286, 491
T-S Misc.28.71	390, 397
T-S Misc.28.79	174-5, 464
T-S Misc.28.184	301, 353, 493, 506
T-S Misc.28.217	134, 408, 452, 455
T-S Misc.28.226	447
T-S Misc.28.263	436
T-S Misc.28.264	399
T-S Misc.28.266	113, 130, 134, 405, 441, 447, 449, 454, 455
T-S Misc.28.267	127, 134, 454, 455
T-S Misc.29.29	29, 127, 134, 403, 434, 447, 454, 455
T-S Misc.29.58	136, 406, 439, 456
T-S Misc.35.10	446
T-S 8.9	246, 480
T-S 8.13	293, 492
T-S 8.20	429
T-S 8.89	391
T-S 8.90	449
T-S 8.97	374, 414
T-S 8.101	301, 493
T-S 8.102	404
T-S 8.104	227, 238, 253, 474, 477, 482
T-S 8.110	178, 410, 464
T-S 8.111	81, 443
T-S 8.112	78, 405, 443
T-S 8.116	379, 413, 450, 469
T-S 8.121	178, 464
T-S 8.127	413
T-S 8.129	136, 406, 456
T-S 8.131	182, 465
T-S 8.133	410
T-S 8.138	382
T-S 8.139	262, 485
T-S 8.143	281, 490
T-S 8.147	413
T-S 8.152	474
T-S 8.154	262, 485
T-S 8.166	182, 310, 465, 495
T-S 8.166	453
T-S 8.168	387, 405, 483
T-S 8.173	410
T-S 8.184	138, 261, 456, 484
T-S 8.199	248-9, 458
T-S 8.206	243, 479
T-S 8.208	120-21, 382, 395, 451, 452
T-S 8.210	133, 380, 415, 455
T-S 8.222	133, 455
T-S 8.223	392
T-S 8.224	498, 502
T-S 8.225	379, 403
T-S 8.228	392
T-S 8.238	120-21, 406, 452
T-S 8.239	390, 413
T-S 8.260	256, 483
T-S 12.1	421, 450
T-S 12.2	301, 493
T-S 12.7	432
T-S 12.8	432
T-S 12.9	237, 477
T-S 12.12	124, 128, 375, 415, 453, 454
T-S 12.13	239, 478
T-S 12.16	42, 436
T-S 12.39	70-71, 152, 310, 390, 415, 441, 459, 496
T-S 12.50	243, 479
T-S 12.64	120-21, 452
T-S 12.69	30, 434
T-S 12.88	251-2, 481
T-S 12.92	467
T-S 12.95	413
T-S 12.98	391, 395, 448
T-S 12.116	447
T-S 12.118	372, 408
T-S 12.119	412, 459
T-S 12.121	71
T-S 12.121	403, 441, 442
T-S 12.124	432
T-S 12.128	398, 450
T-S 12.129	188
T-S 12.129	466
T-S 12.131	408
T-S 12.133	480
T-S 12.140	255, 483
T-S 12.144	400
T-S 12.146	425
T-S 12.154	105, 120-1, 388, 395, 437, 448, 452
T-S 12.155	138, 375, 401, 449, 456
T-S 12.156	489
T-S 12.159	403
T-S 12.163	381, 391, 413, 450
T-S 12.164	380, 455
T-S 12.165	398
T-S 12.167	376, 413
T-S 12.175	430
T-S 12.176	327, 500
T-S 12.177	243, 479
T-S 12.180	378
T-S 12.229	428
T-S 12.234	471
T-S 12.242	77
T-S 12.242	306, 442, 469, 494
T-S 12.250	227-8, 474
T-S 12.252	29-30, 434, 461
T-S 12.262	22, 226, 316, 319, 431, 437, 451, 463, 474, 497, 499
T-S 12.275	429
T-S 12.288	464, 486
T-S 12.289	305, 307, 494, 495
T-S 12.299	195, 468
T-S 12.322	430
T-S 12.337	55-6, 438, 441
T-S 12.347	200, 229, 469, 475
T-S 12.350	482
T-S 12.367	429
T-S 12.372	428
T-S 12.373	461
T-S 12.425	7, 427
T-S 12.438	449
T-S 12.440	400, 450, 452
T-S 12.442	120-21, 395, 452
T-S 12.443	112, 367, 449
T-S 12.445	309, 495
T-S 12.449	449
T-S 12.452	374, 414
T-S 12.453	382, 399, 449
T-S 12.457	366, 399
T-S 12.461	497
T-S 12.488	379, 400
T-S 12.489	407, 449
T-S 12.490	120-21, 395, 451-2
T-S 12.493	236, 429, 477
T-S 12.494	120-21, 234, 309, 388, 395, 447, 451, 476, 495
T-S 12.499	37, 435
T-S 12.512	233, 476
T-S 12.519	422
T-S 12.526	369, 401
T-S 12.530	283, 429, 490
T-S 12.531	253-4, 482
T-S 12.537	134, 455
T-S 12.541	396
T-S 12.544	334, 386, 411, 499, 502
T-S 12.547	389, 413
T-S 12.552	364, 407
T-S 12.553	254, 482
T-S 12.558	399
T-S 12.575	210, 301, 470, 493
T-S 12.576	498
T-S 12.585	192, 369, 412, 467
T-S 12.591	284, 299, 490, 493
T-S 12.596	449
T-S 12.597	462
T-S 12.613	271, 382, 487
T-S 12.618	497
T-S 12.621	439
T-S 12.624	449, 460
T-S 12.631	254, 482
T-S 12.634	288, 491
T-S 12.640	407
T-S 12.647	126, 454
T-S 12.653	120-21, 384, 406, 452
T-S 12.656	410
T-S 12.658	498
T-S 12.659	452
T-S 12.673	387, 396
T-S 12.678	29, 434, 471
T-S 12.681	200, 468-9
T-S 12.684	436, 470
T-S 12.685	397
T-S 12.688	449
T-S 12.689	448, 108-9
T-S 12.714	287, 491
T-S 12.715	109, 448
T-S 12.762	397
T-S 12.763	311, 496
T-S 12.771	133, 387, 392, 410, 455
T-S 12.773	500
T-S 12.780	4, 39-40, 242, 426, 435, 479
T-S 12.789	30, 434
T-S 12.815	9, 393, 428
T-S 12.829	430
T-S 16.2	397
T-S 16.3	450
T-S 16.5	435
T-S 16.11	157, 460
T-S 16.13	340, 503
T-S 16.14	10, 285, 428, 490
T-S 16.23	253, 482, 497
T-S 16.27	294, 492
T-S 16.32	408, 498
T-S 16.35	173-4, 463
T-S 16.42	13, 429, 430
T-S 16.44	382
T-S 16.49	483
T-S 16.50	136, 406, 455, 497
T-S 16.52	109, 381, 397, 448
T-S 16.53	120-1, 388, 396, 451
T-S 16.57	233, 476
T-S 16.58	413
T-S 16.64	428, 430, 439
T-S 16.65	243, 479
T-S 16.67	120-21, 409, 437, 447, 450, 452
T-S 16.70	373, 414, 498
T-S 16.71	108, 398, 448
T-S 16.73	111, 449
T-S 16.74	129, 396, 454
T-S 16.75	397
T-S 16.76	437, 448
T-S 16.78	401, 448
T-S 16.79	499
T-S 16.80	378, 417
T-S 16.85	127, 390, 410, 454
T-S 16.86	128, 369, 454
T-S 16.90	247-8, 481, 483
T-S 16.91	448
T-S 16.104	111
T-S 16.105	373, 398, 450
T-S 16.106	403
T-S 16.107	111-12, 128, 379, 408, 449, 450, 454
T-S 16.109	441, 448
T-S 16.112	108, 448, 449
T-S 16.115	307, 495
T-S 16.119	334, 445, 502
T-S 16.123	120, 391, 395, 438, 447, 451
T-S 16.125	450
T-S 16.127	495
T-S 16.132	39, 388, 435
T-S 16.134	308, 486, 495
T-S 16.141	287, 489, 491
T-S 16.142	129-30, 159, 373, 417, 454, 461
T-S 16.144	182, 465
T-S 16.146	327, 500
T-S 16.147	384, 416, 449
T-S 16.148	436
T-S 16.150	290, 428, 491
T-S 16.153	309, 448, 495, 498
T-S 16.155	400, 449
T-S 16.162	489
T-S 16.169	400, 445
T-S 16.171	236, 477
T-S 16.172	327, 328, 333, 498, 500, 501
T-S 16.173	404
T-S 16.178	448
T-S 16.179	17, 226
T-S 16.179	161, 225, 229, 233, 430, 461, 473, 474, 476
T-S 16.181	93, 124, 372, 401, 404, 405, 437, 445, 446, 448, 453
T-S 16.184	411
T-S 16.185	470
T-S 16.188	497-8
T-S 16.189	373, 410
T-S 16.191	437
T-S 16.198	407, 467
T-S 16.209	450
T-S 16.210	410
T-S 16.211	211, 448
T-S 16.214	411, 469
T-S 16.217	379, 403
T-S 16.218	267, 486
T-S 16.220	182, 465
T-S 16.231	75-6
T-S 16.231	442, 445
T-S 16.233	384, 413
T-S 16.238	336, 502
T-S 16.241	238, 244, 477, 479
T-S 16.245	447, 448, 450
T-S 16.246	156, 387, 392, 416, 448, 449, 460
T-S 16.256	292, 296, 301, 492, 493
T-S 16.262	238, 477
T-S 16.264	430
T-S 16.265	240, 478
T-S 16.269	437
T-S 16.272	477
T-S 16.274	162, 462
T-S 16.277	164, 165, 241, 462, 478
T-S 16.278	221-3
T-S 16.278	473
T-S 16.279	42, 436
T-S 16.286	23, 30, 156, 431, 432, 434, 460
T-S 16.287	45, 436
T-S 16.291	225, 311, 473, 496
T-S 16.293	432, 436, 439
T-S 16.330	448
T-S 16.335	277, 488
T-S 16.356	435
T-S 16.357	450
T-S 16.374	121, 446, 452
T-S 16.377	114, 450
T-S 20.1	128, 138, 311, 399, 447, 454, 456, 496, 499
T-S 20.5	403
T-S 20.6	137-8, 378, 408, 448, 456
T-S 20.7	128, 137, 404, 448, 454
T-S 20.8	364, 407
T-S 20.10	134, 393, 400, 455
T-S 20.23	287, 491
T-S 20.25	412
T-S 20.32	330, 501
T-S 20.33	387, 414, 449
T-S 20.36	150, 459
T-S 20.37	431
T-S 20.39	309, 495
T-S 20.42	109, 448
T-S 20.47	421, 441, 447, 463
T-S 20.48	124-5
T-S 20.60	294, 492
T-S 20.62	156, 159, 382, 400, 449, 452, 460, 461
T-S 20.64	395
T-S 20.66	232, 476
T-S 20.77	408, 448
T-S 20.80	428
T-S 20.83	429
T-S 20.86	449
T-S 20.87	154, 460
T-S 20.92	435
T-S 20.96	503
T-S 20.100	300, 493
T-S 20.101	411
T-S 20.109	134, 152, 399, 447, 451, 455, 459
T-S 20.113	428, 10
T-S 20.116	120-21, 395, 401, 452
T-S 20.117	337, 503
T-S 20.122	73, 429, 442
T-S 20.126	327, 500
T-S 20.135	163, 462
T-S 20.140	199, 468
T-S 20.151	407
T-S 20.156	407
T-S 20.160	147, 155, 157, 458, 460
T-S 20.162	489
T-S 20.169	43, 45, 238, 325, 432, 436, 477, 500
T-S 20.174	425, 435
T-S 20.187	125, 434, 454
T-S 24.1	136, 406, 456
T-S 24.2	131, 376, 397, 448, 455
T-S 24.3	110, 380, 397, 448, 437
T-S 24.5	110, 120-21, 380, 396, 448, 452
T-S 24.7	28, 246, 374, 409, 433, 447, 448, 480
T-S 24.8	134, 408, 448, 452, 455
T-S 24.9	134, 455
T-S 24.12	377, 414
T-S 24.13	448
T-S 24.14	123, 453
T-S 24.15	156, 159, 382, 383, 392, 400, 415, 449, 452, 460, 461
T-S 24.16	407, 449
T-S 24.17	113, 449, 499
T-S 24.18	288, 491
T-S 24.25	43, 432
T-S 24.27	440
T-S 24.28	181, 465
T-S 24.34	410
T-S 24.35	373, 408, 499
T-S 24.45	406
T-S 24.49	241, 249, 479, 481
T-S 24.55	450
T-S 24.67	30, 434
T-S 24.73	314, 427, 497
T-S 24.75	159, 380, 461
T-S 24.76	64
T-S 24.76	353, 440, 498, 506
T-S 24.80	159, 378, 401, 461
T-S 24.81	284, 292, 313-14, 413, 490, 492, 496
T-S 28.3	37, 326, 335, 435, 500, 502
T-S 28.6	125, 434, 436, 454, 479
T-S 28.7	470
T-S 28.19	258, 332, 412, 484, 501
T-S 28.20	461
T-S 28.23	128, 379, 403, 454
T-S NS 31.7	494
T-S NS 31.8	238-9, 477
T-S NS 99.45	438
T-S NS 110.20	447
T-S NS 154.165	279, 489
T-S NS 164.13	128, 454
T-S NS 184.50	31, 434, 442
T-S NS 184.50	74
T-S NS 184.57	327, 500
T-S NS 184.65	450
T-S NS 184.90	406
T-S NS 226.10	145, 381, 457
T-S NS 226.11	145
T-S NS 226.11	381, 457
T-S NS 226.12	280, 489
T-S NS 246.26.12	429
T-S NS 258.155	416
T-S NS 297.1	488
T-S NS 298.27	240, 478
T-S NS 306.1	329, 500
T-S NS 308.25	260, 484
T-S NS 312.82	46, 432
T-S NS 313.4	159, 401, 461
T-S NS 320.15	121, 450, 452
T-S NS 320.16	430
T-S NS 320.20	203-4, 209, 469, 470
T-S NS 320.29	331, 501
T-S NS 320.33	475
T-S NS 320.41	429
T-S NS 320.46	488
T-S NS 320.54	192-3, 467
T-S NS 320.57	192-3, 467
T-S NS 320.108	372, 416
T-S NS 321.6	429
T-S NS 321.23	461
T-S NS 321.50 	41, 436
T-S NS 321.54	358, 507
T-S NS 321.100	190, 466
T-S NS 323.4	120-21, 379, 395, 448, 452
T-S NS 323.19	254, 482
T-S NS 324.107	376, 413
T-S NS 324.144	412
T-S NS 325.8	443
T-S NS J2	45, 432
T-S NS J7	430
T-S NS J9	10, 428
T-S NS J14	245-6, 480
T-S NS J24a&b	430
T-S NS J27	385, 401, 499
T-S NS J29	431, 435
T-S NS J32	32, 434
T-S NS J41	470
T-S NS J42	225, 474
T-S NS J47	498
T-S NS J51	471
T-S NS J58	246, 480
T-S NS J68	307, 495
T-S NS J73	332, 501
T-S NS J86	310, 495
T-S NS J90	299, 493
T-S NS J97	161, 462
T-S NS J98	13, 429
T-S NS J102	444
T-S NS J112	453
T-S NS J118	186-7, 466
T-S NS J120	213
T-S NS J120	471
T-S NS J133	466
T-S NS J149	469
T-S NS J163	297, 493
T-S NS J179	428
T-S NS J183	29, 434
T-S NS J184	283-4, 490
T-S NS J185	188-95, 381, 466
T-S NS J191	470
T-S NS J198	157, 460
T-S NS J226	125, 262, 309, 338, 446, 453, 485, 495, 503
T-S NS J226.3	124, 453
T-S NS J227	167, 463
T-S NS J228	389, 400, 452
T-S NS J231	400
T-S NS J236	172, 463
T-S NS J239	429
T-S NS J247	269, 486
T-S NS J249	302, 305, 493, 494
T-S NS J269	429
T-S NS J278	407, 441
T-S NS J282	262, 485
T-S NS J287	133
T-S NS J287	146, 455, 457
T-S NS J293	170, 463
T-S NS J297	152, 263, 459, 485
T-S NS J306	127, 454
T-S NS J325	498
T-S NS J338	243, 479
T-S NS J347	251, 481
T-S NS J356	482
T-S NS J357	255, 483
T-S NS J358	158, 409, 461
T-S NS J363	134, 152, 455, 459
T-S NS J364	411
T-S NS J378	144
T-S NS J378	151, 158, 408, 457, 459, 460
T-S NS J380	208-9, 470
T-S NS J382	243, 479
T-S NS J383	336, 477, 502
T-S NS J385	286, 490
T-S NS J390	408, 463
T-S NS J392	482
T-S NS J401	347, 504
T-S NS J401	441, 446
T-S NS J401	193, 467
T-S NS J410	129, 401, 454
T-S NS J412	410, 486
T-S NS J413	259, 484
T-S NS J443	410
T-S NS J453	272, 487
T-S NS J455	262, 485
T-S NS J457	311, 415, 496
T-S NS J461	254, 396, 482
T-S NS J465	297, 493
T-S NS J469	277, 488
T-S NS J475	403, 450
T-S NS J490	470
T-S NS J496	483
T-S AS 145.1	395
T-S AS 145.3	347, 504
T-S AS 145.7	280, 317, 489, 498
T-S AS 145.9 	482
T-S AS 145.13	352, 505
T-S AS 145.17	302, 493
T-S AS 145.22	241, 478
T-S AS 145.24	166, 462
T-S AS 145.25	299, 493
T-S AS 146.4	468
T-S AS 146.5 	249, 481
T-S AS 146.7	445
T-S AS 146.18	324-5
T-S AS 146.18	500
T-S AS 146.66	372, 415, 416
T-S AS 146.183	416
T-S AS 147.1	397
T-S AS 147.2	426, 445
T-S AS 147.4	237, 477
T-S AS 147.8	331, 501
T-S AS 147.9	387, 403
T-S AS 147.12	152, 403, 441, 459
T-S AS 147.17	267, 486
T-S AS 147.22	341, 503
T-S AS 147.23	289, 491
T-S AS 147.25	398
T-S AS 148.6	411
T-S AS 152.1	262, 485
T-S AS 153.1	279, 489
Or.1080 1.2	447
Or.1080 1.3	437
Or.1080 4.15	203, 469
Or.1080 5.15	125, 367, 412, 453
Or.1080 5.17	120-21, 395, 452
Or.1080 6.25	311, 496
Or.1080 9.21	449
Or.1080 J2	337, 503
Or.1080 J6	89, 238, 256, 445, 464, 477, 483
Or.1080 J7	202-3, 378, 413, 469
Or.1080 J8	299, 303, 493, 494
Or.1080 J22	190
Or.1080 J22	466
Or.1080 J23	178, 462, 464, 472
Or.1080 J23	219-20
Or.1080 J24	62
Or.1080 J24	440
Or.1080 J25	172, 231, 463, 475, 488
Or.1080 J28	162, 225, 462, 474, 498
Or.1080 J30	39, 435
Or.1080 J35	167, 463
Or.1080 J40	24, 432
Or.1080 J47	471
Or.1080 J49	128, 386, 417, 454
Or.1080 J65	385
Or.1080 J67	276, 488
Or.1080 J68	471
Or.1080 J71	162, 462
Or.1080 J80	461
Or.1080 J90	450
Or.1080 J100	401
Or.1080 J105	199, 468
Or.1080 J107	468
Or.1080 J117	243, 479
Or.1080 J140	398, 446
Or.1080 J141	267, 486
Or.1080 J142	490
Or.1080 J145	461
Or.1080 J149	3, 426
Or.1080 J172	310, 495
Or.1080 J173	210, 470
Or.1080 J175	334, 502
Or.1080 J185	125, 453
Or.1080 J186	409, 447
Or.1080 J187	391
Or.1080 J190	230, 233, 475, 476
Or.1080 J206	393, 448, 450, 498
Or.1080 J223	358, 507
Or.1080 J258	491
Or.1080 J260	391, 395, 448
Or.1080 J262	252-3, 336, 482, 492, 502
Or.1080 J276	178, 464
Or.1080 J285	269, 486
Or.1080 J286	120-21, 385, 395, 452
Or.1080 J289	395
Or.1081 J5	190, 434
Or.1081 J17	470
Or.1081 J30	203, 469
Or.1081 J38	213-14, 471
Or.1081 J40	271, 393, 406, 487
Or.1081 J56	422, 486
Or.1081 J67	464
Add.3337	46, 436
Add.3339	236, 390, 411, 412, 477, 481
Add.3339a	298, 493
Add.3340	431
Add.3343	5
Add.3343	426, 450, 498
Add.3348	4
Add.3348	426
Add.3349	403, 442
Add.3388	447
Add.3417	237, 241, 477, 479
Add.3420	348, 349, 505
Add.3430	376, 400, 437
T-S 6J2.2	152, 187, 452, 466
T-S 10J15.23	228
T-S 10J16.17	439
T-S 13J25.9	235, 476
T-S Ar.50.181	416
West. Coll. Ar.I.40	377, 407
West. Coll. Ar.I.53	498
West. Coll. Ar.I.76	377, 407
West. Coll. Ar.II.51	168, 195-6, 463, 468
West. Coll. Ar.II.129	275, 475, 488
West. Coll. Misc.11	153, 459
West. Coll. Misc.18	192, 467
West. Coll. Misc.42	380
West. Coll. Misc.43	432
West. Coll. Misc.46	499
West. Coll. Misc.47	401
West. Coll. Misc.77	449
West. Coll. Misc.98	408
West. Coll. Misc.105	377, 407
West. Coll. Misc.106	449
West. Coll. Misc.113	253, 311, 412, 481, 482, 496
West. Coll. Misc.115	481, 252, 482
West. Coll. Misc.119	449
West. Coll. Misc.120	127, 454
West. Coll. Misc.125	375, 407
West. Coll. Glass 3	192, 467
West. Coll. Glass 39	498
Mosseri IIIa.11	NULL
Mosseri Ia.2, mistakenly referred as Mosseri A 2 	NULL
Mosseri II.155.1?? II.155.2??, mistakenly referred as A 156 (correct old classmark is L 156) 	NULL
Mosseri II.195	NULL
Mosseri IIIa.1, mistakenly referred as Mosseri A 1 	NULL
Mosseri IV.3	NULL
Mosseri V.206	NULL
Mosseri VII.4.3, mistakenly referred as Mosseri A 4.3 	NULL
Mosseri VII.7	NULL
Mosseri VII.10.1	NULL
Mosseri VII.11	NULL
Mosseri VII.4.3	NULL
Mosseri VII.18	NULL
Mosseri VII.21.1, mistakenly referred as A 21 (=> 2nd series A 21) 	NULL
Mosseri VII.27, mistakenly referred as A 27 (=> A 27, 2nd series) 	NULL
Mosseri VII.30	NULL
Mosseri VII.37.2 (check again)	NULL
Mosseri VII.37.2	NULL
Mosseri VII.40.2	NULL
Mosseri VII.52.1, mistakenly referred as A 52.1 (=> A 52, 2nd series) 	NULL
Mosseri VII.56	NULL
Mosseri VII.67.2	NULL
Mosseri VII.68.1	NULL
Mosseri VII.75	NULL
Mosseri VII.76.1	NULL
Mosseri VII.77	NULL
Mosseri VII.80.2	NULL
Mosseri VII.82.1	NULL
Mosseri VII.89.4	NULL
Mosseri VII.90.1	NULL
Mosseri VII.123	NULL
Mosseri VII.124.2	NULL
Mosseri VII.138.1	NULL
Mosseri VII.162.3	NULL
Mosseri VII.178.1	NULL
Mosseri VII.200	NULL
Mosseri X.107	NULL
Mosseri VII.16.1	NULL
