T-S J1.31	160, 163, 548-51
T-S J3.16	547
T-S K6.118	185, 558
T-S K6.189	333, 598
T-S K15.6	42, 517
T-S K15.7	224, 568
T-S K15.14	42, 517, 552
T-S K15.47	262, 579
T-S K15.68	482, 641
T-S K15.69	267-68, 580
T-S K15.91	302, 172, 554, 590
T-S K15.93	42, 517
T-S K15.105	115-16, 538
T-S K15.106	269, 581
T-S K15.107	31, 513
T-S K21.29	401, 620
T-S K25.240	490, 642
T-S K25.244	409, 622
T-S K27	182, 557
T-S 6J1.5	333, 598
T-S 6J2.17	608-9
T-S 6J3.5	553
T-S 6J4.14	297, 589
T-S 6J9.1	385, 615
T-S 8J4.14	212, 566-67
T-S 8J4.23	545
T-S 8J5.1	158, 549
T-S 8J5.8	332, 597
T-S 8J5.13	333, 598
T-S 8J5.24	202, 564
T-S 8J6.14	139, 544
T-S 8J7.15	519, 565
T-S 8J8.9	543
T-S 8J8.12	136, 543
T-S 8J9.6	396, 618
T-S 8J9.15	192, 561
T-S 8J9.16	491, 642
T-S 8J10.19	487, 642
T-S 8J11.2	263, 579
T-S 8J11.10	422, 626
T-S 8J11.14	192, 561
T-S 8J12.2	150, 547
T-S 8J13.1	285, 586
T-S 8J14.12	12, 506
T-S 8J14.18	65, 522
T-S 8J15.3	108, 536
T-S 8J15.5	24, 511
T-S 8J15.9	194, 562
T-S 8J15.18	123, 243, 539, 574
T-S 8J15.20	182, 557
T-S 8J15.24	332, 597
T-S 8J15.28	18, 508
T-S 8J16.3	233, 570
T-S 8J16.4	486, 642
T-S 8J16.7	87, 530
T-S 8J16.18	271, 582
T-S 8J16.30	35, 90, 514-15, 531
T-S 8J16.31	206, 565
T-S 8J17.5	14, 506
T-S 8J17.15	221-22, 568
T-S 8J17.16	248, 575
T-S 8J17.17	238, 571
T-S 8J17.22	334, 547, 598
T-S 8J17.33	245, 574
T-S 8J18.5	463
T-S 8J18.20	102-3, 534
T-S 8J18.22	34, 514
T-S 8J18.23	110, 536
T-S 8J18.28	35, 514
T-S 8J19.8	110-11, 537
T-S 8J19.15	236-37, 571
T-S 8J19.24	205, 565
T-S 8J20.1	100, 534
T-S 8J20.4	194, 562
T-S 8J20.11	274, 583
T-S 8J20.20	475, 640
T-S 8J20.26	56, 188, 520, 559
T-S 8J21.12	191, 561
T-S 8J21.14	136, 543
T-S 8J21.20	102, 534
T-S 8J21.21	6, 505
T-S 8J21.30	89-90, 531
T-S 8J21.33	533
T-S 8J22.6 	71-72, 114-15, 524-25, 538
T-S 8J22.7	352, 395, 603, 617
T-S 8J22.9	256, 577
T-S 8J22.18	243, 574
T-S 8J22.22	642
T-S 8J22.23	566
T-S 8J22.25	319, 593
T-S 8J22.27	189, 560
T-S 8J23.7	524
T-S 8J23.20	193, 561
T-S 8J23.27	351, 394-95, 603, 617
T-S 8J24.1	333, 598
T-S 8J24.17	87-88, 351, 530, 603, 617
T-S 8J25.6	571
T-S 8J25.15	279, 584
T-S 8J25.16	242, 574
T-S 8J26.1	34, 514
T-S 8J26.2	365-66, 608
T-S 8J26.4	344, 601-2
T-S G1.52	110, 536-37
T-S G1.61	592
T-S 8J26.19	473-74, 640
T-S 8J26.20	294, 588
T-S 8J27.1	279, 584
T-S 8J27.8	620
T-S 8J27.9	101-2, 534
T-S 8J27.22	242, 573
T-S 8J28.5	279, 584
T-S 8J29.13	25, 511
T-S 8J33.4	182, 557
T-S 8J34.10	140, 544
T-S 8J36.2	239, 572
T-S 8J37.11	90, 531
T-S 8J40.1	247, 575
T-S 8J40.8	30, 113, 512, 538
T-S 8J41.13	110, 536
T-S 8Ja1.4	193, 561
T-S 8K22.1	267-68, 580
T-S 8K22.6	482, 641
T-S 10J2.1	182, 557
T-S 10J4.4	487, 642
T-S 10J4.11	269, 510, 581
T-S 10J4.25	268, 580-81
T-S 10J5.6	373-74, 377-79, 612-13
T-S 10J5.9	204, 564
T-S 10J5.10	623
T-S 10J5.12	234, 239, 571-72
T-S 10J6.2	30, 512
T-S 10J6.4	130, 541
T-S 10J6.5	179, 538, 556
T-S 10J6.7	135, 543
T-S 10J7.6	162, 550
T-S 10J7.10	139-40, 544
T-S 10J7.17	204, 564
T-S 10J9.1	180-81, 556
T-S 10J9.3	351, 603
T-S 10J9.21	12, 505
T-S 10J9.26	566
T-S 10J10.3	102, 534
T-S 10J10.14	331, 597
T-S 10J10.15	460, 636
T-S 10J10.20	182, 557-58
T-S 10J10.27	279-80, 584
T-S 10J11.1	465, 638
T-S 10J11.11	458, 636
T-S 10J11.12	100, 534
T-S 10J11.13	411, 239, 572, 623
T-S 10J11.15	394, 617
T-S 10J12.8	14, 507
T-S 10J12.10	97, 533
T-S 10J12.14	123, 539
T-S 10J12.20	242, 245, 573-74
T-S 10J12.27	491, 642
T-S 10J13.8	483, 641
T-S 10J13.10	189, 559
T-S 10J13.11	327, 596
T-S 10J13.13	198-99, 563
T-S 10J13.14	483, 641
T-S 10J13.15	191, 560
T-S 10J13.23	352, 604
T-S 10J14.5	484, 641
T-S 10J14.9	352, 395, 603, 617
T-S 10J14.11	108, 248, 536, 575
T-S 10J14.12	189, 559
T-S 10J14.20	97, 533
T-S 10J15.1	463-64
T-S 10J15.2	507
T-S 10J15.3	463, 637
T-S 10J15.9	559
T-S 10J15.23	218-19, 567
T-S 10J15.27	88, 530
T-S 10J15.33	48, 334, 518, 598
T-S 10J16.2	545
T-S 10J16.11	560
T-S 10J16.16	95, 532, 561
T-S 10J16.17	453, 586, 635
T-S 10J17.4	39, 516
T-S 10J17.7	242, 560, 573
T-S 10J17.8	240, 422, 572, 626
T-S 10J17.10	12, 506
T-S 10J17.16	108-10, 536-37
T-S 10J17.17	103, 108-9, 535-36
T-S 10J17.21	279-80, 584
T-S 10J17.22	238-39, 572
T-S 10J17.25	351, 394-95, 603, 617
T-S 10J18.2	302-3, 580-81
T-S 10J18.10	188, 559
T-S 10J19.7	26, 36, 511, 515
T-S 10J19.26	329, 596
T-S 10J20.2	302, 590
T-S 10J20.5	22, 510
T-S 10J20.19	351, 603
T-S 10J24.2	300, 590
T-S 10J24.4	103, 535
T-S 10J25.3	39, 516
T-S 10J26.7	530
T-S 10J27.3	336, 599
T-S 10J30.7	189, 560
T-S 10J30.8	557
T-S 10J30.9	95, 532
T-S 10J30.11	484-85, 641
T-S 10J31.3	268, 580-81
T-S 10J31.6	57, 521
T-S 10J31.9	560
T-S 10J32.12	22, 510
T-S 13J1.8	594
T-S 13J1.14	118, 538
T-S 13J1.22	88, 530
T-S 13J2.6	132, 542
T-S 13J3.2	122, 132, 162, 539, 542-44, 550, 559
T-S 13J3.3	124, 162, 539, 547, 550, 153-55
T-S 13J3.12	357, 431, 605, 629
T-S 13J3.18	135, 543
T-S 13J3.21	487, 642
T-S 13J3.27	487-88, 642
T-S 13J4.1	17, 508
T-S 13J4.7	183, 558
T-S 13J4.10	166, 552
T-S 13J4.16	23, 510
T-S 13J6.9	182, 557
T-S 13J6.15	91, 531
T-S 13J6.16	530
T-S 13J6.27	430, 629
T-S 13J6.33	368, 610
T-S 13J7.10	234, 571
T-S 13J7.17	567
T-S 13J7.29	368, 610
T-S 13J8.23	192, 561
T-S 13J8.27	257, 577
T-S 13J9.1	197, 563
T-S 13J9.3	196, 562
T-S 13J9.4	229, 570
T-S 13J9.5	208, 565
T-S 13J9.10	487, 642
T-S 13J11.7	618
T-S 13J13.4	14, 506
T-S 13J13.13	74, 526
T-S 13J14.2	48, 518
T-S 13J14.4	133, 397, 542, 619
T-S 13J14.11	394, 617
T-S 13J14.14	367, 609
T-S 13J15.3	351, 394, 603, 617
T-S 13J15.8	618
T-S 13J15.12	596
T-S 13J15.14	195, 284, 562, 585-86
T-S 13J15.15 	199, 563
T-S 13J15.16	305, 591
T-S 13J15.18	541
T-S 13J15.20	105, 305, 535, 591
T-S 13J15.22	328, 596
T-S 13J15.24	301, 590
T-S 13J16.1	618
T-S 13J16.7	240, 572-73
T-S 13J16.9	351, 394, 603, 617
T-S 13J17.2	111, 537
T-S 13J17.6	113, 537
T-S 13J17.8	108, 358, 536, 605-6
T-S 13J17.10	294-95, 588
T-S 13J17.15	193, 561
T-S 13J17.16	32, 187, 513, 559
T-S 13J17.21	258, 578
T-S 13J17.22	466
T-S 13J18.2	18, 508
T-S 13J18.4	103, 535
T-S 13J18.11	351, 394, 603, 617
T-S 13J18.15	262, 579
T-S 13J18.19	507
T-S 13J18.27	104-5, 244, 535, 574
T-S 13J19.4	14, 507
T-S 13J19.7	12, 506, 585, 345
T-S 13J19.9	205, 565
T-S 13J19.14	15, 507
T-S 13J19.16	605, 610
T-S 13J19.17	281, 585
T-S 13J19.20	53, 520
T-S 13J19.21	197, 562, 586, 286-87
T-S 13J19.23	105, 535
T-S 13J19.30	96, 532
T-S 13J20.2	238, 571
T-S 13J20.3	102, 534
T-S 13J20.6	191, 242-43, 506, 560, 574
T-S 13J20.8	188, 559
T-S 13J20.16	107, 536
T-S 13J20.18	240, 572
T-S 13J20.20	15, 330, 507, 596-97
T-S 13J20.22	243, 574
T-S 13J20.26	352, 603
T-S 13J20.28	330, 596
T-S 13J21.1	352, 603
T-S 13J21.3	88, 102, 352, 530, 534, 603
T-S 13J21.5	277, 583
T-S 13J21.11	490, 642
T-S 13J21.14	191, 561
T-S 13J21.24	524
T-S 13J21.27	37, 515
T-S 13J21.28	241, 573
T-S 13J22.2	147-49, 544-46, 620
T-S 13J22.10	239, 572
T-S 13J22.12	199, 563
T-S 13J22.13	14, 506
T-S 13J22.15	14, 506
T-S 13J22.23	110, 536
T-S 13J22.24	174, 554
T-S 13J22.29	548, 626
T-S 13J23.3	97, 190, 195, 300, 533, 560-62, 590
T-S 13J23.4	17, 508
T-S 13J23.5	224, 229, 569-70
T-S 13J23.8	193, 561
T-S 13J23.10	126, 329, 540, 596
T-S 13J23.14	16, 47, 507, 518
T-S 13J23.15	119, 256, 539, 577
T-S 13J23.17	193-94, 561
T-S 13J23.22	571
T-S 13J24.3	47, 518
T-S 13J24.4	203-4, 269, 564, 581
T-S 13J24.8	240, 460, 572, 636
T-S 13J24.14	285, 586
T-S 13J24.18	256, 577
T-S 13J24.20	295, 588
T-S 13J24.22	222, 568
T-S 13J25.2	37, 88-89, 515, 530
T-S 13J25.8	279, 584
T-S 13J25.12	49, 303, 519, 560, 590, 596
T-S 13J25.15	106, 524, 535
T-S 13J25.18	239, 572
T-S 13J26.1	35, 514
T-S 13J26.6	22, 510
T-S 13J26.7	395, 511, 618
T-S 13J26.8	71, 525
T-S 13J26.15	395, 618
T-S 13J26.18	25-26, 511
T-S 13J26.22	189, 560
T-S 13J26.24	395, 618
T-S 13J27.5	74, 526
T-S 13J27.15	236, 571
T-S 13J27.20	300, 590
T-S 13J28.10	194, 562
T-S 13J28.11	571
T-S 13J28.12	41, 516
T-S 13J28.17	193, 561
T-S 13J29.3	280, 584
T-S 13J29.10	328, 596
T-S 13J30.6	194, 561
T-S 13J33.3	528
T-S 13J33.7	83, 528
T-S 13J33.8	82, 528
T-S 13J34.5	144-45, 546
T-S 13J34.8	371, 611
T-S 13J34.12	233, 570
T-S 13J36.1	236, 571
T-S 13J36.2	330, 596
T-S 13J36.3	243, 574
T-S 13J36.6	132, 542
T-S 13J36.11	102, 534
T-S 13J37.6	31, 513
T-S 18J1.5	187, 559
T-S 18J1.6	396, 618
T-S 18J1.8	519
T-S 18J1.10	136-37, 543
T-S 18J1.15	133-34, 542
T-S 18J1.21	136, 543
T-S 18J1.24	135, 543
T-S 18J2.3	241, 573
T-S 18J2.10	42, 191, 516, 561
T-S 18J2.11	113, 537
T-S 18J2.16	132, 542
T-S 18J3.1	204, 564
T-S 18J3.5	300, 590
T-S 18J3.9	63-65, 522
T-S 18J3.11	490, 642
T-S 18J3.12	490, 642
T-S 18J3.15	268, 581
T-S 18J3.19	229, 570
T-S 18J4.3	240, 572
T-S 18J4.10	105, 535
T-S 18J4.13	132, 542
T-S 18J4.19	351, 603
T-S 18J5.5	67-68, 523
T-S 18J5.5	466, 638
T-S Ar.4.5	163, 185-86, 552, 559
T-S Ar.5.1	235-36, 571
T-S Ar.7.9	15, 507
T-S Ar.18(1).137	189, 559
T-S Ar.30.40	271, 582
T-S Ar.30.67	89, 531
T-S Ar.30.159	269, 581
T-S Ar.30.250	428, 628
T-S Ar.38.41	240, 572
T-S Ar.38.88	524
T-S Ar.38.117	271, 582
T-S Ar.39.79	42, 517
T-S Ar.40.9	43, 517
T-S Ar.40.48	44, 517
T-S Ar.40.56	245, 574
T-S Ar.40.187	89, 531
T-S Ar.41.53	296, 589
T-S Ar.41.109	553
T-S Ar.42.165	124, 539
T-S Ar.44.54	292, 588
T-S Ar.48.270	466, 638
T-S Ar.51.111	155, 548, 642
T-S Ar.52.247	23, 510
T-S Ar.53.37	439-41, 631
T-S Ar.54.48	44, 102, 517, 534
T-S Ar.54.66	22, 510, 512
T-S Ar.54.91	113
T-S Ar.54.91	538
T-S Ar.54.93	322, 594
T-S Misc.8.99	40, 516
T-S Misc.8.102 	269, 581
T-S Misc.24.28	425, 627
T-S Misc.24.137.4	132, 431, 542-43, 629
T-S Misc.24.137.4	132, 542-43
T-S Misc.25.53	172, 554
T-S Misc.25.64	427, 628
T-S Misc.25.124	392, 617
T-S Misc.25.130	108, 536
T-S Misc.28.37	392, 617
T-S Misc.28.51	142, 545
T-S Misc.28.184	551-52
T-S Misc.28.199	167, 553
T-S Misc.28.225	17, 508
T-S Misc.28.256	525
T-S Misc.35.32	34, 514
T-S Misc.36.170	319-20, 593
T-S 8.9	225-26, 569
T-S 8.11	109, 536
T-S 8.32	48, 304, 518, 591
T-S 8.33	72, 525
T-S 8.60	325, 595
T-S 8.106	370, 610-11
T-S 8.143	135-36, 543
T-S 8.200	88, 530
T-S 8.213	554-55
T-S 12.3	76-79, 527
T-S 12.13	562
T-S 12.18	598
T-S 12.21	236-37, 571
T-S 12.34	242, 573, 600
T-S 12.41	337, 599
T-S 12.56	44, 352, 517, 603
T-S 12.57	102, 534
T-S 12.58	15, 507
T-S 12.64	232, 570
T-S 12.65	334, 598
T-S 12.66	289, 587
T-S 12.69	189, 560
T-S 12.81	351, 603
T-S 12.92	110, 280, 537, 584
T-S 12.133	239, 572
T-S 12.171	239, 572
T-S 12.175	281-82, 46, 239, 516, 572, 585
T-S 12.179	595
T-S 12.217	120, 539
T-S 12.224	190-91, 560
T-S 12.227	47, 518
T-S 12.242	314, 592
T-S 12.245	325, 595
T-S 12.247	339
T-S 12.250	331, 597
T-S 12.252	423, 434, 626-27, 630
T-S 12.258	595
T-S 12.270	329, 541, 596
T-S 12.279	17, 240, 508, 572
T-S 12.280	16, 507, 638
T-S 12.284	157, 548
T-S 12.287	241, 455, 573
T-S 12.289	484, 641
T-S 12.291	241, 573
T-S 12.298	96, 532
T-S 12.299	29, 179, 512, 556
T-S 12.303	236, 257-58, 571, 577
T-S 12.305	236, 571
T-S 12.312	40, 516
T-S 12.337	191, 560
T-S 12.357	329, 596
T-S 12.362	203, 564
T-S 12.373	97, 533
T-S 12.374	98, 533
T-S 12.378	599
T-S 12.383	239, 572
T-S 12.386	617
T-S 12.392	340, 247, 575, 600
T-S 12.405	191, 296, 561, 589
T-S 12.413	271, 582
T-S 12.415	304, 559, 590
T-S 12.425	82, 352, 528, 603
T-S 12.428	101, 534
T-S 12.433	48, 518
T-S 12.434	76, 526
T-S 12.435	243, 574
T-S 12.451	634
T-S 12.459	396, 618
T-S 12.464	331, 336, 597-99
T-S 12.466	123, 539
T-S 12.487	634
T-S 12.512	28, 512
T-S 12.530	158-60, 549
T-S 12.568	598
T-S 12.581	551
T-S 12.594	183, 558
T-S 12.613	132, 542
T-S 12.631	132, 163, 542, 551
T-S 12.636	549
T-S 12.644	371, 611, 620
T-S 12.652	194, 561
T-S 12.654	13, 299, 506, 533-35, 589, 102-4
T-S 12.657	583
T-S 12.683	213, 567
T-S 12.693	104, 535
T-S 12.719	396, 618
T-S 12.780	119, 539
T-S 12.793	76, 526
T-S 12.816	289, 587
T-S 12.830	333, 598
T-S 16.6	553
T-S 16.9	54-55, 520
T-S 16.11	4, 505, 558, 183
T-S 16.13	48, 242, 518, 574
T-S 16.27	189, 560
T-S 16.34	396, 618
T-S 16.42	189, 560
T-S 16.44	132, 542
T-S 16.54	247, 458, 575, 636
T-S 16.57	199-200, 563
T-S 16.64	565-66, 209-11
T-S 16.71	421, 626
T-S 16.109	371, 611
T-S 16.115	141, 544, 546, 145-47
T-S 16.124	182, 557
T-S 16.128	29, 512
T-S 16.138	182, 557
T-S 16.149	31, 33, 513-14
T-S 16.170	331, 597
T-S 16.171	120-21, 539
T-S 16.177	331, 597, 620
T-S 16.179	42, 516
T-S 16.186	118, 538
T-S 16.187	491, 641-42
T-S 16.196	49, 134, 213, 519, 542, 560, 566
T-S 16.250	126, 540
T-S 16.255	196-97, 562
T-S 16.262	133, 541-42
T-S 16.269	282-83, 585
T-S 16.274	279, 584
T-S 16.277	309, 592
T-S 16.278	229, 570
T-S 16.279	129-30, 132, 541-42
T-S 16.281	245, 574
T-S 16.286	51, 55-56, 188, 243, 304-5, 519-20, 559, 574, 591
T-S 16.287	179, 556
T-S 16.291	197, 267, 562, 580
T-S 16.293	238-39, 268, 418, 571-72, 581, 624
T-S 16.294	188, 192, 272, 284, 559, 561, 582, 585
T-S 16.298	271, 582
T-S 16.303	188, 559
T-S 16.305	39, 114, 490, 516, 538, 642
T-S 16.307	421, 626
T-S 16.334	368, 610
T-S 16.339	239-40, 541, 572, 598
T-S 16.347	372, 609
T-S 20.7	267, 580
T-S 20.28	35, 194, 514, 562
T-S 20.37	33, 103, 514, 535
T-S 20.38	315-16, 592
T-S 20.44	641
T-S 20.66	618
T-S 20.69	191, 393, 560, 617
T-S 20.78	617
T-S 20.80	330-31, 357, 597, 605
T-S 20.83	507
T-S 20.94	267, 402, 580, 620
T-S 20.99	137, 543
T-S 20.102	185-86, 558-59
T-S 20.103	118, 538
T-S 20.111	423, 618, 626
T-S 20.113	373-79, 54, 113, 520, 537, 560, 612-13
T-S 20.117	21-22, 319, 509, 593
T-S 20.125	12, 506
T-S 20.127	188, 559
T-S 20.128	65, 271, 522, 582
T-S 20.130	52-53, 520
T-S 20.133	76, 526
T-S 20.137	67, 523
T-S 20.148	79-80, 527
T-S 20.149	86, 529, 530
T-S 20.160	517
T-S 20.169	355-56, 605
T-S 20.171	545-46
T-S 20.173	393, 617
T-S 24.6	396, 618
T-S 24.14	121, 539
T-S 24.27	81-82, 131, 351, 528, 541, 603
T-S 24.29	422, 626
T-S 24.43	236, 571, 605, 618
T-S 24.46	352, 604
T-S 24.49	304, 285, 586, 590, 620
T-S 24.56	27, 284, 321, 511, 586, 594
T-S 24.65	375, 612
T-S 24.72	175-77, 554
T-S 24.75	262, 579
T-S 24.76	43, 517
T-S 24.78	40-42, 187, 516-17, 559, 575, 249-54
T-S 28.4	213, 566-67, 583
T-S 28.6	333, 598
T-S 28.7	183, 558
T-S 28.10	617
T-S 28.17	256, 577
T-S 28.20	545
T-S 28.22	34, 514
T-S 32.10	617
T-S NS 108.50	111, 537
T-S NS 110.26	270, 581
T-S NS 143.46	468, 639
T-S NS 200.55	320, 594
T-S NS 246.22	262, 579
T-S NS 264.1	325, 595
T-S NS 320.7	538
T-S NS 320.16	566
T-S NS 320.23	139, 142, 543-45
T-S NS 320.42	566
T-S NS 320.44	424, 627
T-S NS 320.52	545
T-S NS 320.58	589
T-S NS 321.1	31-32, 513
T-S NS 321.23	271, 582
T-S NS 321.93	114, 538
T-S NS J1	247, 575
T-S NS J14	610
T-S NS J16	194, 562, 574
T-S NS J23	192, 561
T-S NS J24	41, 516
T-S NS J27	172, 554
T-S NS J59	643
T-S NS J60	576
T-S NS J68	564, 201
T-S NS J76	42, 517
T-S NS J84	352, 395, 603, 618
T-S NS J87	307, 564, 591
T-S NS J93	314-15, 592
T-S NS J94	140, 544
T-S NS J98	531
T-S NS J111	565
T-S NS J120	189, 194, 199, 560, 562-63, 598
T-S NS J134	126, 191, 540, 561
T-S NS J173	425, 627
T-S NS J174	525
T-S NS J180	50, 519
T-S NS J209	554
T-S NS J236	164-65, 552
T-S NS J241	247, 575
T-S NS J242	271, 333, 582, 598
T-S NS J260	104, 535
T-S NS J270	47, 518
T-S NS J272	334, 598
T-S NS J284	162, 166, 550-52
T-S NS J285	50, 113, 519, 537
T-S NS J292	269, 581
T-S NS J296	633
T-S NS J323	89, 531
T-S NS J337	604
T-S NS J347	137, 543
T-S NS J354	122, 539
T-S NS J376	12, 505
T-S NS J380	525
T-S NS J403	553
T-S NS J419	156-57, 548
T-S NS J422	445, 633
T-S NS J473	336, 599
T-S NS J484	547
T-S AS 145.14	352, 603
T-S AS 145.22	15, 507
T-S AS 146.2	136, 543
T-S AS 146.3	373, 423, 611, 626
T-S AS 146.9	36, 515
T-S AS 147.2	70, 235, 368, 524, 571, 609
T-S AS 147.4	127, 205, 540, 565
T-S AS 148.2	295, 588
T-S AS 148.3	236-37, 571
T-S AS 148.9	50, 519
T-S AS 148.17	560
T-S AS 149.3	69, 103, 523, 535
T-S AS 149.7	599
T-S AS 150.2	237-38, 571
T-S AS 150.6	156, 548
T-S AS 150.13	90-91, 531
T-S AS 151.2	122, 539
T-S AS 152.4	105, 535
T-S AS 156.237	221-22, 568
T-S AS 156.238	221-22, 568
Or.1080 6.25	32, 187, 513, 559
Or.1080 J2	31, 271, 513, 582
Or.1080 J15	309, 591-92
Or.1080 J21	47-48, 518
Or.1080 J22	130, 541
Or.1080 J24	119, 539
Or.1080 J27	110, 537
Or.1080 J28	12, 258, 394, 506, 577-78, 617
Or.1080 J29	12, 506
Or.1080 J35	229, 570
Or.1080 J35	354, 604
Or.1080 J36	280, 584
Or.1080 J39	246, 574
Or.1080 J40	395, 618
Or.1080 J42	334, 598
Or.1080 J50	37, 515
Or.1080 J55	230, 242, 570, 573
Or.1080 J56	41, 516
Or.1080 J62	133, 542
Or.1080 J70	297, 589
Or.1080 J71	220-21, 568
Or.1080 J78	191, 561
Or.1080 J94	453, 635
Or.1080 J110	486, 609, 642
Or.1080 J132	618
Or.1080 J142	172, 554
Or.1080 J151	346, 602
Or.1080 J154	46, 518
Or.1080 J161	115, 538
Or.1080 J244	640
Or.1080 J255	393, 617
Or.1080 J258	462, 637
Or.1080 J264	538
Or.1080 J265	618
Or.1080 J281	483-84, 641
Or.1080 J285	642
Or.1080 J287	488, 642
Or.1081 J3	247, 575
Or.1081 J8	119-20, 539
Or.1081 J24	113, 537
Add.3336	300, 590
Add.3339	132-33, 542
Add.3340	288-89, 196, 205, 562, 565, 586
Add.3341	199, 563
Add.3342	110-11, 537
Add.3345	193, 299, 330, 561, 589, 596
Add.3416	519
Add.3417	122-23, 539
Add.3430	620
UNIDENTIFIED	183, 558
West. Coll. Lit.II.140	395, 618
West. Coll. Misc.43	279, 584
West. Coll. Misc.113	333, 598
West. Coll. Glass 1	425, 627-28
